what,kind,bundleId,bundleVersion,description,time
stopped,bundle,org.eclipse.jst.server.generic.oc4j,1.5.206.v20090812,"org.eclipse.jst.server.generic.oc4j",1302898298609
stopped,bundle,org.eclipse.jst.server.websphere.core,1.0.302.v20080620,"org.eclipse.jst.server.websphere.core",1302898298609
stopped,bundle,org.eclipse.jst.server.generic.ui,1.0.505.v20100428,"org.eclipse.jst.server.generic.ui",1302898298609
stopped,bundle,org.eclipse.jst.server.generic.core,1.0.606.v20100512,"org.eclipse.jst.server.generic.core",1302898298609
stopped,bundle,org.eclipse.mylyn.ide.ant,3.4.0.v20100608-0100-e3x,"org.eclipse.mylyn.ide.ant",1302898298609
stopped,bundle,org.eclipse.datatools.connectivity.oda.template.ui,3.2.1.v201004090942,"org.eclipse.datatools.connectivity.oda.template.ui",1302898298609
stopped,bundle,org.eclipse.pde.api.tools.ui,1.0.201.v20100820_r361,"org.eclipse.pde.api.tools.ui",1302898298625
stopped,bundle,org.eclipse.pde.ds.ui,1.0.100.v20100601,"org.eclipse.pde.ds.ui",1302898298625
stopped,bundle,org.eclipse.pde.runtime,3.4.200.v20100601,"org.eclipse.pde.runtime",1302898298625
stopped,bundle,org.eclipse.pde.ua.ui,1.0.100.v20100504,"org.eclipse.pde.ua.ui",1302898298625
stopped,bundle,org.eclipse.pde.ui.templates,3.4.200.v20100601,"org.eclipse.pde.ui.templates",1302898298640
stopped,bundle,org.jboss.tools.maven.cdi,1.0.0.v20110216-1827-H58-GA,"org.jboss.tools.maven.cdi",1302898298640
stopped,bundle,org.jboss.tools.cdi.core,1.1.0.v20110215-1333-H24-GA,"org.jboss.tools.cdi.core",1302898298640
stopped,bundle,org.jboss.tools.jsf.text.ext.richfaces,3.2.0.v20110215-1535-H41-GA,"org.jboss.tools.jsf.text.ext.richfaces",1302898298640
stopped,bundle,org.jboss.tools.jsf.text.ext.facelets,3.2.0.v20110215-1535-H41-GA,"org.jboss.tools.jsf.text.ext.facelets",1302898298656
stopped,bundle,org.jboss.tools.jsf.text.ext,3.2.0.v20110215-1535-H41-GA,"org.jboss.tools.jsf.text.ext",1302898298656
stopped,bundle,org.jboss.tools.jsf.ui,3.2.0.v20110215-1535-H41-GA,"org.jboss.tools.jsf.ui",1302898298656
stopped,bundle,org.jboss.tools.jsf.verification,3.1.0.v20110215-1535-H41-GA,"org.jboss.tools.jsf.verification",1302898298656
stopped,bundle,org.jboss.tools.jsf.vpe.ajax4jsf,3.1.0.v20110215-1535-H41-GA,"org.jboss.tools.jsf.vpe.ajax4jsf",1302898298687
stopped,bundle,org.jboss.tools.jsf.vpe.jbpm,1.0.0.v20110215-1535-H41-GA,"org.jboss.tools.jsf.vpe.jbpm",1302898298703
stopped,bundle,org.jboss.tools.jsf.vpe.jstl,3.1.0.v20110215-1535-H41-GA,"org.jboss.tools.jsf.vpe.jstl",1302898298718
stopped,bundle,org.jboss.tools.jsf.vpe.richfaces,3.2.0.v20110215-1535-H41-GA,"org.jboss.tools.jsf.vpe.richfaces",1302898298734
stopped,bundle,org.jboss.tools.jsf.vpe.seam,3.2.0.v20110215-1535-H41-GA,"org.jboss.tools.jsf.vpe.seam",1302898298750
stopped,bundle,org.jboss.tools.jsf.vpe.jsf,3.2.0.v20110215-1535-H41-GA,"org.jboss.tools.jsf.vpe.jsf",1302898298765
stopped,bundle,org.jboss.tools.maven.seam,1.1.0.v20110216-1827-H58-GA,"org.jboss.tools.maven.seam",1302898298765
stopped,bundle,org.jboss.tools.maven.project.examples,1.0.0.v20110216-1827-H58-GA,"org.jboss.tools.maven.project.examples",1302898298781
activated,perspective,org.jboss.tools.jst.web.ui,,"org.jboss.tools.jst.web.ui.WebDevelopmentPerspective",1302898321109
started,bundle,org.eclipse.osgi,3.6.2.R36x_v20110210,"org.eclipse.osgi",1302898321109
started,bundle,org.eclipse.equinox.simpleconfigurator,1.0.200.v20100503,"org.eclipse.equinox.simpleconfigurator",1302898321125
started,bundle,com.ibm.icu,4.2.1.v20100412,"com.ibm.icu",1302898321125
started,bundle,org.eclipse.compare.core,3.5.101.R36x_v20100929-0800,"org.eclipse.compare.core",1302898321203
started,bundle,org.eclipse.core.contenttype,3.4.100.v20100505-1235,"org.eclipse.core.contenttype",1302898321296
started,bundle,org.eclipse.core.databinding.observable,1.3.0.I20100601-0800,"org.eclipse.core.databinding.observable",1302898321312
started,bundle,org.eclipse.core.expressions,3.4.200.v20100505,"org.eclipse.core.expressions",1302898321968
started,bundle,org.eclipse.core.filebuffers,3.5.100.v20100520-0800,"org.eclipse.core.filebuffers",1302898321984
started,bundle,org.eclipse.core.filesystem,1.3.1.R36x_v20100727-0745,"org.eclipse.core.filesystem",1302898322109
started,bundle,org.eclipse.core.jobs,3.5.1.R36x_v20100824,"org.eclipse.core.jobs",1302898322140
started,bundle,org.eclipse.core.net,1.2.100.I20100511-0800,"org.eclipse.core.net",1302898322140
started,bundle,org.eclipse.core.resources,3.6.1.R36x_v20110131-1630,"org.eclipse.core.resources",1302898322156
started,bundle,org.eclipse.core.runtime,3.6.0.v20100505,"org.eclipse.core.runtime",1302898322156
started,bundle,org.eclipse.core.runtime.compatibility,3.2.100.v20100505,"org.eclipse.core.runtime.compatibility",1302898322171
started,bundle,org.eclipse.core.runtime.compatibility.auth,3.2.200.v20100517,"org.eclipse.core.runtime.compatibility.auth",1302898322171
started,bundle,org.eclipse.debug.core,3.6.0.v20100519,"org.eclipse.debug.core",1302898322171
started,bundle,org.eclipse.debug.ui,3.6.3.v20101201_r362,"org.eclipse.debug.ui",1302898322187
started,bundle,org.eclipse.emf.common,2.6.0.v20100914-1218,"org.eclipse.emf.common",1302898322187
started,bundle,org.eclipse.emf.ecore,2.6.1.v20100914-1218,"org.eclipse.emf.ecore",1302898322187
started,bundle,org.eclipse.emf.ecore.xmi,2.5.0.v20100521-1846,"org.eclipse.emf.ecore.xmi",1302898322187
started,bundle,org.eclipse.epp.usagedata.gathering,1.3.1.R201102081640,"org.eclipse.epp.usagedata.gathering",1302898322187
started,bundle,org.eclipse.epp.usagedata.recording,1.3.1.R201102081640,"org.eclipse.epp.usagedata.recording",1302898322203
started,bundle,org.eclipse.equinox.app,1.3.1.R36x_v20100803,"org.eclipse.equinox.app",1302898322203
started,bundle,org.eclipse.equinox.common,3.6.0.v20100503,"org.eclipse.equinox.common",1302898322203
started,bundle,org.eclipse.equinox.ds,1.2.1.R36x_v20100803,"org.eclipse.equinox.ds",1302898322218
started,bundle,org.eclipse.equinox.event,1.2.0.v20100503,"org.eclipse.equinox.event",1302898322218
started,bundle,org.eclipse.equinox.p2.core,2.0.3.R36x_v20110111,"org.eclipse.equinox.p2.core",1302898322218
started,bundle,org.eclipse.equinox.p2.directorywatcher,1.0.203.R36x_v20101220,"org.eclipse.equinox.p2.directorywatcher",1302898322265
started,bundle,org.eclipse.equinox.p2.engine,2.0.1.R36x_v20110201,"org.eclipse.equinox.p2.engine",1302898322265
started,bundle,org.eclipse.equinox.p2.metadata,2.0.1.R36x_v20101202,"org.eclipse.equinox.p2.metadata",1302898322265
started,bundle,org.eclipse.equinox.p2.metadata.repository,1.1.0.v20100513,"org.eclipse.equinox.p2.metadata.repository",1302898322281
started,bundle,org.eclipse.equinox.p2.operations,2.0.0.v20100510,"org.eclipse.equinox.p2.operations",1302898322296
started,bundle,org.eclipse.equinox.p2.publisher,1.1.2.v20100824-2220,"org.eclipse.equinox.p2.publisher",1302898322296
started,bundle,org.eclipse.equinox.p2.reconciler.dropins,1.1.2.R36x_v20110114,"org.eclipse.equinox.p2.reconciler.dropins",1302898322328
started,bundle,org.eclipse.equinox.p2.repository,2.0.2.R36x_v20110111-1500,"org.eclipse.equinox.p2.repository",1302898322359
started,bundle,org.eclipse.equinox.p2.ui.sdk.scheduler,1.0.0.v20100507-1815,"org.eclipse.equinox.p2.ui.sdk.scheduler",1302898322359
started,bundle,org.eclipse.equinox.p2.updatechecker,1.1.101.R36x_v20100823,"org.eclipse.equinox.p2.updatechecker",1302898322421
started,bundle,org.eclipse.equinox.preferences,3.3.0.v20100503,"org.eclipse.equinox.preferences",1302898322421
started,bundle,org.eclipse.equinox.registry,3.5.0.v20100503,"org.eclipse.equinox.registry",1302898322421
started,bundle,org.eclipse.equinox.security,1.0.200.v20100503,"org.eclipse.equinox.security",1302898322437
started,bundle,org.eclipse.equinox.security.ui,1.0.200.v20100503,"org.eclipse.equinox.security.ui",1302898322437
started,bundle,org.eclipse.equinox.util,1.0.200.v20100503,"org.eclipse.equinox.util",1302898322453
started,bundle,org.eclipse.gef,3.6.2.v20110110-2020,"org.eclipse.gef",1302898322453
started,bundle,org.eclipse.help,3.5.0.v20100524,"org.eclipse.help",1302898322453
started,bundle,org.eclipse.jdt.core,3.6.2.v_A76_R36x,"org.eclipse.jdt.core",1302898322468
started,bundle,org.eclipse.jdt.core.manipulation,1.3.0.v20100520-0800,"org.eclipse.jdt.core.manipulation",1302898322468
started,bundle,org.eclipse.jdt.launching,3.5.200.v20110105_r362,"org.eclipse.jdt.launching",1302898322484
started,bundle,org.eclipse.jdt.ui,3.6.2.r362_v20110203,"org.eclipse.jdt.ui",1302898322484
started,bundle,org.eclipse.jem,2.0.400.v201005110200,"org.eclipse.jem",1302898322484
started,bundle,org.eclipse.jem.util,2.1.3.v201012070000,"org.eclipse.jem.util",1302898322500
started,bundle,org.eclipse.jem.workbench,2.0.300.v200910290230,"org.eclipse.jem.workbench",1302898322500
started,bundle,org.eclipse.jface,3.6.2.M20110210-1200,"org.eclipse.jface",1302898322500
started,bundle,org.eclipse.jst.common.frameworks,1.1.403.v201012160000,"org.eclipse.jst.common.frameworks",1302898322515
started,bundle,org.eclipse.jst.common.project.facet.core,1.4.102.v201008182136,"org.eclipse.jst.common.project.facet.core",1302898322515
started,bundle,org.eclipse.jst.j2ee,1.1.404.v201102081800,"org.eclipse.jst.j2ee",1302898323453
started,bundle,org.eclipse.jst.j2ee.core,1.2.4.v201102101900,"org.eclipse.jst.j2ee.core",1302898323468
started,bundle,org.eclipse.jst.j2ee.web,1.1.404.v201102030400,"org.eclipse.jst.j2ee.web",1302898323468
started,bundle,org.eclipse.jst.jee,1.0.302.v201101122300,"org.eclipse.jst.jee",1302898323468
started,bundle,org.eclipse.jst.jsp.core,1.2.304.v201102160550,"org.eclipse.jst.jsp.core",1302898323468
started,bundle,org.eclipse.jst.jsp.ui,1.1.503.v201101262228,"org.eclipse.jst.jsp.ui",1302898323468
started,bundle,org.eclipse.jst.server.core,1.2.101.v20100421,"org.eclipse.jst.server.core",1302898323484
started,bundle,org.eclipse.jst.server.tomcat.core,1.1.203.v20110201,"org.eclipse.jst.server.tomcat.core",1302898323484
started,bundle,org.eclipse.jst.ws.jaxrs.core,1.0.201.v201011231540,"org.eclipse.jst.ws.jaxrs.core",1302898323484
started,bundle,org.eclipse.jst.ws.jaxws.utils,1.0.0.v201004171919,"org.eclipse.jst.ws.jaxws.utils",1302898323484
started,bundle,org.eclipse.mylyn.bugzilla.core,3.4.2.v20100902-0100-e3x,"org.eclipse.mylyn.bugzilla.core",1302898323484
started,bundle,org.eclipse.mylyn.bugzilla.ui,3.4.3.v20110131-0100-e3x,"org.eclipse.mylyn.bugzilla.ui",1302898323484
started,bundle,org.eclipse.mylyn.commons.net,3.4.1.v20100625-2100-e3x,"org.eclipse.mylyn.commons.net",1302898323484
started,bundle,org.eclipse.mylyn.commons.ui,3.4.0.v20100608-0100-e3x,"org.eclipse.mylyn.commons.ui",1302898323484
started,bundle,org.eclipse.mylyn.context.core,3.4.1.v20100909-0100-e3x,"org.eclipse.mylyn.context.core",1302898323484
started,bundle,org.eclipse.mylyn.context.ui,3.4.2.v20110131-0100-e3x,"org.eclipse.mylyn.context.ui",1302898323484
started,bundle,org.eclipse.mylyn.monitor.ui,3.4.1.v20110131-0100-e3x,"org.eclipse.mylyn.monitor.ui",1302898323500
started,bundle,org.eclipse.mylyn.tasks.ui,3.4.3.v20110131-0100-e3x,"org.eclipse.mylyn.tasks.ui",1302898323500
started,bundle,org.eclipse.mylyn.team.ui,3.4.3.v20110131-0100-e3x,"org.eclipse.mylyn.team.ui",1302898323500
started,bundle,org.eclipse.pde.launching,3.6.0.v20100601,"org.eclipse.pde.launching",1302898323500
started,bundle,org.eclipse.pde.ui,3.6.1.v20110210_r362,"org.eclipse.pde.ui",1302898323500
started,bundle,org.eclipse.team.core,3.5.101.R36x_v20110203-1036,"org.eclipse.team.core",1302898323500
started,bundle,org.eclipse.team.ui,3.5.102.R36x_v20110203-1036,"org.eclipse.team.ui",1302898323500
started,bundle,org.eclipse.ui,3.6.2.M20110203-1100,"org.eclipse.ui",1302898323515
started,bundle,org.eclipse.ui.console,3.5.0.v20100526,"org.eclipse.ui.console",1302898323515
started,bundle,org.eclipse.ui.editors,3.6.1.r361_v20100825-0800,"org.eclipse.ui.editors",1302898323515
started,bundle,org.eclipse.ui.forms,3.5.2.r36_v20100702,"org.eclipse.ui.forms",1302898323515
started,bundle,org.eclipse.ui.ide,3.6.2.M20101201-0800,"org.eclipse.ui.ide",1302898323515
started,bundle,org.eclipse.ui.net,1.2.100.I20100505-1245,"org.eclipse.ui.net",1302898323531
started,bundle,org.eclipse.ui.views,3.5.1.M20110202-0800,"org.eclipse.ui.views",1302898323531
started,bundle,org.eclipse.ui.views.log,1.0.100.v20110210_r362,"org.eclipse.ui.views.log",1302898323531
started,bundle,org.eclipse.ui.workbench,3.6.2.M20110210-1200,"org.eclipse.ui.workbench",1302898323546
started,bundle,org.eclipse.ui.workbench.texteditor,3.6.1.r361_v20100714-0800,"org.eclipse.ui.workbench.texteditor",1302898323546
started,bundle,org.eclipse.update.configurator,3.3.100.v20100512,"org.eclipse.update.configurator",1302898323546
started,bundle,org.eclipse.update.core,3.2.402.R36x_v20100629,"org.eclipse.update.core",1302898323546
started,bundle,org.eclipse.update.scheduler,3.2.300.v20100512,"org.eclipse.update.scheduler",1302898323546
started,bundle,org.eclipse.wst.common.core,1.2.0.v200908252030,"org.eclipse.wst.common.core",1302898323546
started,bundle,org.eclipse.wst.common.emf,1.2.3.v201012100400,"org.eclipse.wst.common.emf",1302898323562
started,bundle,org.eclipse.wst.common.emfworkbench.integration,1.2.3.v201012020600,"org.eclipse.wst.common.emfworkbench.integration",1302898323562
started,bundle,org.eclipse.wst.common.frameworks,1.2.0.v201003040800,"org.eclipse.wst.common.frameworks",1302898323562
started,bundle,org.eclipse.wst.common.frameworks.ui,1.2.0.v201004080500,"org.eclipse.wst.common.frameworks.ui",1302898323562
started,bundle,org.eclipse.wst.common.modulecore,1.2.5.v201101270100,"org.eclipse.wst.common.modulecore",1302898323562
started,bundle,org.eclipse.wst.common.project.facet.core,1.4.102.v201008170019,"org.eclipse.wst.common.project.facet.core",1302898323562
started,bundle,org.eclipse.wst.common.uriresolver,1.1.401.v201004280700,"org.eclipse.wst.common.uriresolver",1302898323578
started,bundle,org.eclipse.wst.dtd.ui,1.0.500.v201004290328,"org.eclipse.wst.dtd.ui",1302898323578
started,bundle,org.eclipse.wst.server.core,1.1.206.v20110110,"org.eclipse.wst.server.core",1302898323609
started,bundle,org.eclipse.wst.server.ui,1.1.207.v20110119,"org.eclipse.wst.server.ui",1302898323625
started,bundle,org.eclipse.wst.sse.core,1.1.504.v201102160550,"org.eclipse.wst.sse.core",1302898323625
started,bundle,org.eclipse.wst.sse.ui,1.2.3.v201102102045,"org.eclipse.wst.sse.ui",1302898323640
started,bundle,org.eclipse.wst.validation,1.2.201.v201101270100,"org.eclipse.wst.validation",1302898323640
started,bundle,org.eclipse.wst.web,1.1.402.v201012160000,"org.eclipse.wst.web",1302898323640
started,bundle,org.eclipse.wst.xml.core,1.1.503.v201102102045,"org.eclipse.wst.xml.core",1302898323640
started,bundle,org.eclipse.wst.xml.ui,1.1.103.v201101122108,"org.eclipse.wst.xml.ui",1302898323656
started,bundle,org.eclipse.wst.xsl.core,1.1.0.v201004290328,"org.eclipse.wst.xsl.core",1302898323656
started,bundle,org.eclipse.wst.xsl.exslt.core,1.0.0.v201005240426,"org.eclipse.wst.xsl.exslt.core",1302898323656
started,bundle,org.eclipse.wst.xsl.ui,1.1.1.v201009091745,"org.eclipse.wst.xsl.ui",1302898323656
started,bundle,org.hibernate.eclipse,3.4.0.v20110215-1252-H31-GA,"org.hibernate.eclipse",1302898323656
started,bundle,org.hibernate.eclipse.mapper,3.4.0.v20110215-1252-H31-GA,"org.hibernate.eclipse.mapper",1302898323656
started,bundle,org.jboss.tools.common,3.2.0.v20110215-1235-H25-GA,"org.jboss.tools.common",1302898323671
started,bundle,org.jboss.tools.common.el.core,3.2.0.v20110215-1235-H25-GA,"org.jboss.tools.common.el.core",1302898323687
started,bundle,org.jboss.tools.common.gef,3.1.0.v20110215-1235-H25-GA,"org.jboss.tools.common.gef",1302898323687
started,bundle,org.jboss.tools.common.model,3.2.0.v20110215-1235-H25-GA,"org.jboss.tools.common.model",1302898323687
started,bundle,org.jboss.tools.common.model.ui,3.2.0.v20110215-1235-H25-GA,"org.jboss.tools.common.model.ui",1302898323703
started,bundle,org.jboss.tools.common.projecttemplates,3.2.0.v20110215-1235-H25-GA,"org.jboss.tools.common.projecttemplates",1302898323765
started,bundle,org.jboss.tools.common.text.ext,3.2.0.v20110215-1235-H25-GA,"org.jboss.tools.common.text.ext",1302898323781
started,bundle,org.jboss.tools.common.text.xml,3.2.0.v20110215-1235-H25-GA,"org.jboss.tools.common.text.xml",1302898323796
started,bundle,org.jboss.tools.common.verification,3.2.0.v20110215-1235-H25-GA,"org.jboss.tools.common.verification",1302898323796
started,bundle,org.jboss.tools.common.verification.ui,3.1.0.v20110215-1235-H25-GA,"org.jboss.tools.common.verification.ui",1302898323828
started,bundle,org.jboss.tools.hibernate.xml,3.4.0.v20110215-1252-H31-GA,"org.jboss.tools.hibernate.xml",1302898323828
started,bundle,org.jboss.tools.jsf,3.2.0.v20110215-1535-H41-GA,"org.jboss.tools.jsf",1302898323843
started,bundle,org.jboss.tools.jsf.ui,3.2.0.v20110215-1535-H41-GA,"org.jboss.tools.jsf.ui",1302898323843
started,bundle,org.jboss.tools.jsf.verification,3.1.0.v20110215-1535-H41-GA,"org.jboss.tools.jsf.verification",1302898323859
started,bundle,org.jboss.tools.jst.jsp,3.2.0.v20110215-1251-H28-GA,"org.jboss.tools.jst.jsp",1302898323859
started,bundle,org.jboss.tools.jst.web,3.2.0.v20110215-1251-H28-GA,"org.jboss.tools.jst.web",1302898324171
started,bundle,org.jboss.tools.jst.web.tiles,3.1.0.v20110215-1251-H28-GA,"org.jboss.tools.jst.web.tiles",1302898324171
started,bundle,org.jboss.tools.jst.web.tiles.ui,3.2.0.v20110215-1251-H28-GA,"org.jboss.tools.jst.web.tiles.ui",1302898324187
started,bundle,org.jboss.tools.jst.web.ui,3.2.0.v20110215-1251-H28-GA,"org.jboss.tools.jst.web.ui",1302898324187
started,bundle,org.jboss.tools.jst.web.verification,3.1.0.v20110215-1251-H28-GA,"org.jboss.tools.jst.web.verification",1302898324187
started,bundle,org.jboss.tools.seam.pages.xml,3.1.0.v20110216-1818-H44-GA,"org.jboss.tools.seam.pages.xml",1302898324187
started,bundle,org.jboss.tools.seam.xml,3.2.0.v20110216-1818-H44-GA,"org.jboss.tools.seam.xml",1302898324187
started,bundle,org.jboss.tools.struts,3.2.0.v20110215-1526-H32-GA,"org.jboss.tools.struts",1302898324187
started,bundle,org.jboss.tools.struts.ui,3.1.0.v20110215-1526-H32-GA,"org.jboss.tools.struts.ui",1302898324187
started,bundle,org.jboss.tools.struts.validator.ui,3.1.0.v20110215-1526-H32-GA,"org.jboss.tools.struts.validator.ui",1302898324203
started,bundle,org.jboss.tools.struts.verification,3.1.0.v20110215-1526-H32-GA,"org.jboss.tools.struts.verification",1302898324203
started,bundle,org.jboss.tools.usage,1.0.0.v20110215-1224-H25-GA,"org.jboss.tools.usage",1302898324203
started,bundle,org.maven.ide.eclipse,0.12.1.20110112-1712,"org.maven.ide.eclipse",1302898324203
started,bundle,org.maven.ide.eclipse.editor.xml,0.12.1.20110112-1712,"org.maven.ide.eclipse.editor.xml",1302898324203
started,bundle,org.maven.ide.eclipse.maven_model_edit,0.12.1.20110112-1712,"org.maven.ide.eclipse.maven_model_edit",1302898324203
started,bundle,com.adobe.flash.profiler,4.0.1.277662,"com.adobe.flash.profiler",1302898324203
started,bundle,com.adobe.flexbuilder.dcrad,4.0.1.277662,"com.adobe.flexbuilder.dcrad",1302898324203
started,bundle,com.adobe.flexbuilder.debug.ui,4.0.1.277662,"com.adobe.flexbuilder.debug.ui",1302898324218
started,bundle,com.adobe.flexbuilder.editorcore,4.0.1.277662,"com.adobe.flexbuilder.editorcore",1302898324218
started,bundle,com.adobe.flexbuilder.flashbridge,4.0.1.277662,"com.adobe.flexbuilder.flashbridge",1302898324218
started,bundle,com.adobe.flexbuilder.multisdk,4.0.1.277662,"com.adobe.flexbuilder.multisdk",1302898324218
started,bundle,com.adobe.flexbuilder.project,4.0.1.277662,"com.adobe.flexbuilder.project",1302898324218
started,bundle,com.adobe.flexbuilder.utils.osnative,4.0.1.277662,"com.adobe.flexbuilder.utils.osnative",1302898324218
started,bundle,com.adobe.flexide.nativelibs,4.0.1.277662,"com.adobe.flexide.nativelibs",1302898324218
started,bundle,com.adobe.model.core,1.0.2.v20100315273147,"com.adobe.model.core",1302898324218
started,bundle,com.collabnet.subversion.merge,2.2.3,"com.collabnet.subversion.merge",1302898324234
started,bundle,org.tigris.subversion.clientadapter,1.6.12,"org.tigris.subversion.clientadapter",1302898324234
started,bundle,org.tigris.subversion.subclipse.core,1.6.17,"org.tigris.subversion.subclipse.core",1302898324234
started,bundle,org.tigris.subversion.subclipse.tools.usage,1.0.1,"org.tigris.subversion.subclipse.tools.usage",1302898324234
started,bundle,org.tigris.subversion.subclipse.ui,1.6.17,"org.tigris.subversion.subclipse.ui",1302898324234
os,sysinfo,,,"win32",1302898324250
arch,sysinfo,,,"x86",1302898324250
ws,sysinfo,,,"win32",1302898324250
locale,sysinfo,,,"es_AR",1302898324250
processors,sysinfo,,,"2",1302898324250
java.runtime.name,sysinfo,,,"Java(TM) SE Runtime Environment",1302898324250
java.runtime.version,sysinfo,,,"1.6.0_18-b07",1302898324250
java.specification.name,sysinfo,,,"Java Platform API Specification",1302898324250
java.specification.vendor,sysinfo,,,"Sun Microsystems Inc.",1302898324250
java.specification.version,sysinfo,,,"1.6",1302898324250
java.vendor,sysinfo,,,"Sun Microsystems Inc.",1302898324250
java.version,sysinfo,,,"1.6.0_18",1302898324250
java.vm.info,sysinfo,,,"mixed mode, sharing",1302898324250
java.vm.name,sysinfo,,,"Java HotSpot(TM) Client VM",1302898324250
java.vm.specification.name,sysinfo,,,"Java Virtual Machine Specification",1302898324250
java.vm.specification.vendor,sysinfo,,,"Sun Microsystems Inc.",1302898324250
java.vm.specification.version,sysinfo,,,"1.0",1302898324250
java.vm.vendor,sysinfo,,,"Sun Microsystems Inc.",1302898324250
java.vm.version,sysinfo,,,"16.0-b13",1302898324250
started,bundle,org.eclipse.wst.xsd.core,1.1.503.v201011121919,"org.eclipse.wst.xsd.core",1302898324421
started,bundle,org.eclipse.xsd,2.6.0.v20100914-1218,"org.eclipse.xsd",1302898324421
started,bundle,com.adobe.flexide.as.core,4.0.1.277662,"com.adobe.flexide.as.core",1302898324484
started,bundle,org.eclipse.core.variables,3.2.400.v20100505,"org.eclipse.core.variables",1302898324484
started,bundle,com.adobe.flash.codemodel.osgi,4.0.1.277662,"com.adobe.flash.codemodel.osgi",1302898324515
started,bundle,com.adobe.flash.codemodel.core,4.0.1.277662,"com.adobe.flash.codemodel.core",1302898324515
started,bundle,com.adobe.flexide.css.core,4.0.1.277662,"com.adobe.flexide.css.core",1302898324640
started,bundle,com.adobe.flexide.mxml.core,4.0.1.277662,"com.adobe.flexide.mxml.core",1302898324703
started,bundle,org.eclipse.wst.internet.cache,1.0.400.v201004280700,"org.eclipse.wst.internet.cache",1302898324703
started,bundle,com.adobe.flexbuilder.flexunit,4.0.1.277662,"com.adobe.flexbuilder.flexunit",1302898324750
started,bundle,com.adobe.flexide.editorcore,4.0.1.277662,"com.adobe.flexide.editorcore",1302898325218
started,bundle,com.adobe.flexbuilder.mxmlmodel,4.0.1.277662,"com.adobe.flexbuilder.mxmlmodel",1302898325234
started,bundle,org.tigris.subversion.subclipse.mylyn,3.0.0,"org.tigris.subversion.subclipse.mylyn",1302898325406
started,bundle,org.eclipse.jsch.core,1.1.200.I20100505-1245,"org.eclipse.jsch.core",1302898326296
started,bundle,org.eclipse.team.cvs.core,3.3.301.R36x_v20110119-0815,"org.eclipse.team.cvs.core",1302898326296
started,bundle,org.eclipse.team.cvs.ui,3.3.302.R36x_v20110203-1036,"org.eclipse.team.cvs.ui",1302898326406
started,bundle,com.adobe.flexbuilder.editors.derived,4.0.1.277662,"com.adobe.flexbuilder.editors.derived",1302898326500
started,bundle,com.adobe.flexbuilder.ajaxbridge,4.0.1.277662,"com.adobe.flexbuilder.ajaxbridge",1302898326500
started,bundle,com.adobe.flexide.amt,4.0.1.277662,"com.adobe.flexide.amt",1302898326531
started,bundle,com.adobe.flexbuilder.ui,4.0.1.277662,"com.adobe.flexbuilder.ui",1302898328921
started,bundle,com.adobe.flexbuilder.as.editor,4.0.1.277662,"com.adobe.flexbuilder.as.editor",1302898328937
started,bundle,com.adobe.flexbuilder.exportimport,4.0.1.277662,"com.adobe.flexbuilder.exportimport",1302898328953
started,bundle,com.adobe.flexbuilder.importartwork,4.0.1.277662,"com.adobe.flexbuilder.importartwork",1302898328968
started,bundle,com.adobe.flexbuilder.launching.ui,4.0.1.277662,"com.adobe.flexbuilder.launching.ui",1302898328968
started,bundle,com.adobe.flexbuilder.mxml.editor,4.0.1.277662,"com.adobe.flexbuilder.mxml.editor",1302898328984
started,bundle,com.adobe.flexbuilder.project.ui,4.0.1.277662,"com.adobe.flexbuilder.project.ui",1302898329000
started,bundle,org.jboss.tools.jst.web.kb,3.2.0.v20110215-1251-H28-GA,"org.jboss.tools.jst.web.kb",1302898339375
started,bundle,org.eclipse.wst.css.core,1.1.402.v201102031915,"org.eclipse.wst.css.core",1302898339375
started,bundle,org.eclipse.wst.css.ui,1.0.502.v201101122002,"org.eclipse.wst.css.ui",1302898368375
started,bundle,org.eclipse.wst.html.ui,1.0.504.v201101122108,"org.eclipse.wst.html.ui",1302898368390
started,bundle,org.eclipse.wst.dtd.core,1.1.401.v201101122255,"org.eclipse.wst.dtd.core",1302898368500
started,bundle,org.eclipse.wst.html.core,1.1.404.v201101190004,"org.eclipse.wst.html.core",1302898368500
executed,command,org.eclipse.ui,3.6.2.M20110203-1100,"org.eclipse.ui.edit.text.contentAssist.proposals",1302898368750
started,bundle,org.tigris.subversion.clientadapter.javahl,1.6.15,"org.tigris.subversion.clientadapter.javahl",1302898372296
started,bundle,org.tigris.subversion.clientadapter.svnkit,1.6.15,"org.tigris.subversion.clientadapter.svnkit",1302898372312
executed,command,org.eclipse.ui,3.6.2.M20110203-1100,"org.eclipse.ui.file.save",1302898372546
started,bundle,org.jboss.tools.jmx.core,1.2.0.v20110215-1231-H25-GA,"org.jboss.tools.jmx.core",1302898372609
started,bundle,org.jboss.ide.eclipse.as.core,2.2.0.v20110216-1758-H51-GA,"org.jboss.ide.eclipse.as.core",1302898372609
executed,command,org.eclipse.ui.ide,3.6.2.M20101201-0800,"org.eclipse.ui.project.buildAll",1302898375093
error,log,,,"Project facet jbt.bpel.facet.core has not been defined. It is used in plugin org.jboss.ide.eclipse.as.core.",1302898375140
started,bundle,org.jboss.tools.portlet.core,1.2.0.v20110215-1232-H24-GA,"org.jboss.tools.portlet.core",1302898375156
started,bundle,org.hibernate.eclipse.jdt.ui,3.4.0.v20110215-1252-H31-GA,"org.hibernate.eclipse.jdt.ui",1302898375187
started,bundle,org.eclipse.jpt.core,2.3.3.v201102172310,"org.eclipse.jpt.core",1302898375250
started,bundle,org.hibernate.eclipse.console,3.4.0.v20110215-1252-H31-GA,"org.hibernate.eclipse.console",1302898375281
started,bundle,org.eclipse.jdt.apt.core,3.3.402.R36_v20110120-1000,"org.eclipse.jdt.apt.core",1302898375281
started,bundle,org.maven.ide.eclipse.jdt,0.12.1.20110112-1712,"org.maven.ide.eclipse.jdt",1302898375312
deactivated,workbench,org.eclipse.ui.workbench,3.6.2.M20110210-1200,"",1302898375421
started,bundle,org.eclipse.wst.wsi.ui,1.0.501.v201004201506,"org.eclipse.wst.wsi.ui",1302898375640
