what,kind,bundleId,bundleVersion,description,time
started,bundle,org.jboss.tools.hibernate.xml,3.4.0.v20110215-1252-H31-GA,"org.jboss.tools.hibernate.xml",1303234334921
started,bundle,org.jboss.tools.jsf,3.2.0.v20110215-1535-H41-GA,"org.jboss.tools.jsf",1303234334937
started,bundle,org.jboss.tools.jsf.ui,3.2.0.v20110215-1535-H41-GA,"org.jboss.tools.jsf.ui",1303234334984
started,bundle,org.jboss.tools.jsf.verification,3.1.0.v20110215-1535-H41-GA,"org.jboss.tools.jsf.verification",1303234334984
started,bundle,org.jboss.tools.jsf.vpe.ajax4jsf,3.1.0.v20110215-1535-H41-GA,"org.jboss.tools.jsf.vpe.ajax4jsf",1303234335031
started,bundle,org.jboss.tools.jsf.vpe.facelets,3.1.0.v20110215-1535-H41-GA,"org.jboss.tools.jsf.vpe.facelets",1303234335062
started,bundle,org.jboss.tools.jsf.vpe.jbpm,1.0.0.v20110215-1535-H41-GA,"org.jboss.tools.jsf.vpe.jbpm",1303234335062
started,bundle,org.jboss.tools.jsf.vpe.jsf,3.2.0.v20110215-1535-H41-GA,"org.jboss.tools.jsf.vpe.jsf",1303234335109
started,bundle,org.jboss.tools.jsf.vpe.jstl,3.1.0.v20110215-1535-H41-GA,"org.jboss.tools.jsf.vpe.jstl",1303234335109
started,bundle,org.jboss.tools.jsf.vpe.myfaces,3.1.0.v20110215-1535-H41-GA,"org.jboss.tools.jsf.vpe.myfaces",1303234335140
started,bundle,org.jboss.tools.jsf.vpe.richfaces,3.2.0.v20110215-1535-H41-GA,"org.jboss.tools.jsf.vpe.richfaces",1303234335171
started,bundle,org.jboss.tools.jsf.vpe.seam,3.2.0.v20110215-1535-H41-GA,"org.jboss.tools.jsf.vpe.seam",1303234335203
started,bundle,org.jboss.tools.jst.jsp,3.2.0.v20110215-1251-H28-GA,"org.jboss.tools.jst.jsp",1303234335250
started,bundle,org.jboss.tools.jst.web,3.2.0.v20110215-1251-H28-GA,"org.jboss.tools.jst.web",1303234335250
started,bundle,org.jboss.tools.jst.web.kb,3.2.0.v20110215-1251-H28-GA,"org.jboss.tools.jst.web.kb",1303234335343
started,bundle,org.jboss.tools.jst.web.tiles,3.1.0.v20110215-1251-H28-GA,"org.jboss.tools.jst.web.tiles",1303234335343
started,bundle,org.jboss.tools.jst.web.ui,3.2.0.v20110215-1251-H28-GA,"org.jboss.tools.jst.web.ui",1303234335375
started,bundle,org.jboss.tools.jst.web.verification,3.1.0.v20110215-1251-H28-GA,"org.jboss.tools.jst.web.verification",1303234335375
started,bundle,org.jboss.tools.seam.pages.xml,3.1.0.v20110216-1818-H44-GA,"org.jboss.tools.seam.pages.xml",1303234335421
started,bundle,org.jboss.tools.seam.xml,3.2.0.v20110216-1818-H44-GA,"org.jboss.tools.seam.xml",1303234335468
started,bundle,org.jboss.tools.struts,3.2.0.v20110215-1526-H32-GA,"org.jboss.tools.struts",1303234335500
started,bundle,org.jboss.tools.struts.ui,3.1.0.v20110215-1526-H32-GA,"org.jboss.tools.struts.ui",1303234335531
started,bundle,org.jboss.tools.struts.verification,3.1.0.v20110215-1526-H32-GA,"org.jboss.tools.struts.verification",1303234335562
started,bundle,org.jboss.tools.vpe,3.2.0.v20110215-1513-H28-GA,"org.jboss.tools.vpe",1303234335671
started,bundle,org.jboss.tools.vpe.docbook,3.1.0.v20110215-1513-H28-GA,"org.jboss.tools.vpe.docbook",1303234335671
started,bundle,org.jboss.tools.vpe.html,3.2.0.v20110215-1513-H28-GA,"org.jboss.tools.vpe.html",1303234335718
started,bundle,org.jboss.tools.vpe.resref,3.2.0.v20110215-1513-H28-GA,"org.jboss.tools.vpe.resref",1303234335718
started,bundle,org.jboss.tools.vpe.spring,3.1.0.v20110215-1513-H28-GA,"org.jboss.tools.vpe.spring",1303234335718
started,bundle,org.jboss.tools.vpe.ui.palette,3.2.0.v20110215-1513-H28-GA,"org.jboss.tools.vpe.ui.palette",1303234335734
started,bundle,org.jboss.tools.vpe.xulrunner,3.2.0.v20110215-1513-H28-GA,"org.jboss.tools.vpe.xulrunner",1303234335734
started,bundle,org.maven.ide.eclipse,0.12.1.20110112-1712,"org.maven.ide.eclipse",1303234335734
started,bundle,org.maven.ide.eclipse.maven_model_edit,0.12.1.20110112-1712,"org.maven.ide.eclipse.maven_model_edit",1303234335765
started,bundle,com.adobe.flexbuilder.multisdk,4.0.1.277662,"com.adobe.flexbuilder.multisdk",1303234335796
started,bundle,com.adobe.flexbuilder.project,4.0.1.277662,"com.adobe.flexbuilder.project",1303234335796
started,bundle,com.adobe.flexbuilder.utils.osnative,4.0.1.277662,"com.adobe.flexbuilder.utils.osnative",1303234335796
started,bundle,com.adobe.flexide.nativelibs,4.0.1.277662,"com.adobe.flexide.nativelibs",1303234335796
started,bundle,com.collabnet.subversion.merge,2.2.3,"com.collabnet.subversion.merge",1303234335828
started,bundle,org.tigris.subversion.clientadapter,1.6.12,"org.tigris.subversion.clientadapter",1303234335828
started,bundle,org.tigris.subversion.subclipse.core,1.6.17,"org.tigris.subversion.subclipse.core",1303234335859
started,bundle,org.tigris.subversion.subclipse.ui,1.6.17,"org.tigris.subversion.subclipse.ui",1303234335875
os,sysinfo,,,"win32",1303234335890
arch,sysinfo,,,"x86",1303234335890
ws,sysinfo,,,"win32",1303234335890
locale,sysinfo,,,"es_AR",1303234335890
processors,sysinfo,,,"2",1303234335890
java.runtime.name,sysinfo,,,"Java(TM) SE Runtime Environment",1303234335890
java.runtime.version,sysinfo,,,"1.6.0_18-b07",1303234335890
java.specification.name,sysinfo,,,"Java Platform API Specification",1303234335890
java.specification.vendor,sysinfo,,,"Sun Microsystems Inc.",1303234335890
java.specification.version,sysinfo,,,"1.6",1303234335890
java.vendor,sysinfo,,,"Sun Microsystems Inc.",1303234335890
java.version,sysinfo,,,"1.6.0_18",1303234335890
java.vm.info,sysinfo,,,"mixed mode, sharing",1303234335890
java.vm.name,sysinfo,,,"Java HotSpot(TM) Client VM",1303234335890
java.vm.specification.name,sysinfo,,,"Java Virtual Machine Specification",1303234335890
java.vm.specification.vendor,sysinfo,,,"Sun Microsystems Inc.",1303234335890
java.vm.specification.version,sysinfo,,,"1.0",1303234335890
java.vm.vendor,sysinfo,,,"Sun Microsystems Inc.",1303234335890
java.vm.version,sysinfo,,,"16.0-b13",1303234335890
deactivated,workbench,org.eclipse.ui.workbench,3.6.2.M20110210-1200,"",1303234335906
activated,workbench,org.eclipse.ui.workbench,3.6.2.M20110210-1200,"",1303234335906
started,bundle,org.eclipse.mylyn.bugzilla.ui,3.4.3.v20110131-0100-e3x,"org.eclipse.mylyn.bugzilla.ui",1303234336046
started,bundle,org.eclipse.core.variables,3.2.400.v20100505,"org.eclipse.core.variables",1303234336812
started,bundle,org.eclipse.ui.forms,3.5.2.r36_v20100702,"org.eclipse.ui.forms",1303234336828
started,bundle,org.eclipse.mylyn.context.core,3.4.1.v20100909-0100-e3x,"org.eclipse.mylyn.context.core",1303234337484
started,bundle,org.eclipse.mylyn.context.ui,3.4.2.v20110131-0100-e3x,"org.eclipse.mylyn.context.ui",1303234337546
started,bundle,org.eclipse.jsch.core,1.1.200.I20100505-1245,"org.eclipse.jsch.core",1303234337984
started,bundle,org.eclipse.team.cvs.core,3.3.301.R36x_v20110119-0815,"org.eclipse.team.cvs.core",1303234338015
started,bundle,org.eclipse.mylyn.tasks.ui,3.4.3.v20110131-0100-e3x,"org.eclipse.mylyn.tasks.ui",1303234338296
started,bundle,org.eclipse.mylyn.team.ui,3.4.3.v20110131-0100-e3x,"org.eclipse.mylyn.team.ui",1303234338359
started,bundle,org.eclipse.update.scheduler,3.2.300.v20100512,"org.eclipse.update.scheduler",1303234338562
started,bundle,org.eclipse.team.cvs.ui,3.3.302.R36x_v20110203-1036,"org.eclipse.team.cvs.ui",1303234338734
started,bundle,org.tigris.subversion.subclipse.mylyn,3.0.0,"org.tigris.subversion.subclipse.mylyn",1303234338812
started,bundle,org.eclipse.update.configurator,3.3.100.v20100512,"org.eclipse.update.configurator",1303234340593
started,bundle,org.eclipse.update.core,3.2.402.R36x_v20100629,"org.eclipse.update.core",1303234340656
started,bundle,org.jboss.tools.usage,1.0.0.v20110215-1224-H25-GA,"org.jboss.tools.usage",1303234340671
started,bundle,com.adobe.flash.profiler,4.0.1.277662,"com.adobe.flash.profiler",1303234340906
started,bundle,com.adobe.flexbuilder.editorcore,4.0.1.277662,"com.adobe.flexbuilder.editorcore",1303234341093
started,bundle,com.adobe.flexbuilder.dcrad,4.0.1.277662,"com.adobe.flexbuilder.dcrad",1303234341484
started,bundle,com.adobe.flexbuilder.debug.ui,4.0.1.277662,"com.adobe.flexbuilder.debug.ui",1303234341671
started,bundle,com.adobe.flexbuilder.flashbridge,4.0.1.277662,"com.adobe.flexbuilder.flashbridge",1303234341750
started,bundle,com.adobe.model.core,1.0.2.v20100315273147,"com.adobe.model.core",1303234341843
started,bundle,org.tigris.subversion.subclipse.tools.usage,1.0.1,"org.tigris.subversion.subclipse.tools.usage",1303234341906
started,bundle,com.adobe.flash.codemodel.osgi,4.0.1.277662,"com.adobe.flash.codemodel.osgi",1303234342125
started,bundle,com.adobe.flash.codemodel.core,4.0.1.277662,"com.adobe.flash.codemodel.core",1303234342156
started,bundle,com.adobe.flexide.as.core,4.0.1.277662,"com.adobe.flexide.as.core",1303234342328
started,bundle,com.adobe.flexide.css.core,4.0.1.277662,"com.adobe.flexide.css.core",1303234342375
started,bundle,com.adobe.flexide.mxml.core,4.0.1.277662,"com.adobe.flexide.mxml.core",1303234342484
started,bundle,com.adobe.flexbuilder.flexunit,4.0.1.277662,"com.adobe.flexbuilder.flexunit",1303234342640
started,bundle,com.adobe.flexide.editorcore,4.0.1.277662,"com.adobe.flexide.editorcore",1303234343484
started,bundle,com.adobe.flexbuilder.mxmlmodel,4.0.1.277662,"com.adobe.flexbuilder.mxmlmodel",1303234343578
started,bundle,com.adobe.flexbuilder.editors.derived,4.0.1.277662,"com.adobe.flexbuilder.editors.derived",1303234343640
started,bundle,com.adobe.flexbuilder.ajaxbridge,4.0.1.277662,"com.adobe.flexbuilder.ajaxbridge",1303234343718
started,bundle,com.adobe.flexide.amt,4.0.1.277662,"com.adobe.flexide.amt",1303234343812
started,bundle,com.adobe.flexbuilder.ui,4.0.1.277662,"com.adobe.flexbuilder.ui",1303234347031
started,bundle,com.adobe.flexbuilder.as.editor,4.0.1.277662,"com.adobe.flexbuilder.as.editor",1303234347187
started,bundle,com.adobe.flexbuilder.exportimport,4.0.1.277662,"com.adobe.flexbuilder.exportimport",1303234347281
started,bundle,com.adobe.flexbuilder.importartwork,4.0.1.277662,"com.adobe.flexbuilder.importartwork",1303234347343
started,bundle,com.adobe.flexbuilder.launching.ui,4.0.1.277662,"com.adobe.flexbuilder.launching.ui",1303234347390
started,bundle,com.adobe.flexbuilder.mxml.editor,4.0.1.277662,"com.adobe.flexbuilder.mxml.editor",1303234347531
started,bundle,com.adobe.flexbuilder.project.ui,4.0.1.277662,"com.adobe.flexbuilder.project.ui",1303234347562
deactivated,workbench,org.eclipse.ui.workbench,3.6.2.M20110210-1200,"",1303234498203
activated,workbench,org.eclipse.ui.workbench,3.6.2.M20110210-1200,"",1303234498203
deactivated,workbench,org.eclipse.ui.workbench,3.6.2.M20110210-1200,"",1303234498218
activated,workbench,org.eclipse.ui.workbench,3.6.2.M20110210-1200,"",1303234619015
started,bundle,org.jboss.tools.seam.core,3.2.0.v20110216-1818-H44-GA,"org.jboss.tools.seam.core",1303234619734
deactivated,workbench,org.eclipse.ui.workbench,3.6.2.M20110210-1200,"",1303234620531
activated,workbench,org.eclipse.ui.workbench,3.6.2.M20110210-1200,"",1303235566109
deactivated,workbench,org.eclipse.ui.workbench,3.6.2.M20110210-1200,"",1303236101718
activated,workbench,org.eclipse.ui.workbench,3.6.2.M20110210-1200,"",1303236101734
deactivated,workbench,org.eclipse.ui.workbench,3.6.2.M20110210-1200,"",1303236101859
activated,workbench,org.eclipse.ui.workbench,3.6.2.M20110210-1200,"",1303238914703
activated,view,org.eclipse.jdt.ui,3.6.2.r362_v20110203,"org.eclipse.jdt.ui.PackageExplorer",1303238922812
activated,editor,org.jboss.tools.jst.jsp,3.2.0.v20110215-1251-H28-GA,"org.jboss.tools.jst.jsp.jspeditor.JSPTextEditor",1303238924031
activated,view,org.eclipse.jdt.ui,3.6.2.r362_v20110203,"org.eclipse.jdt.ui.PackageExplorer",1303238927140
activated,editor,org.jboss.tools.jst.jsp,3.2.0.v20110215-1251-H28-GA,"org.jboss.tools.jst.jsp.jspeditor.JSPTextEditor",1303238938515
executed,command,org.eclipse.ui.workbench.texteditor,3.6.1.r361_v20100714-0800,"org.eclipse.ui.edit.text.select.lineEnd",1303238943312
executed,command,org.eclipse.ui,3.6.2.M20110203-1100,"org.eclipse.ui.edit.copy",1303238944765
activated,view,org.eclipse.jdt.ui,3.6.2.r362_v20110203,"org.eclipse.jdt.ui.PackageExplorer",1303238948812
started,bundle,org.eclipse.ltk.core.refactoring,3.5.101.r362_v20101117-0800,"org.eclipse.ltk.core.refactoring",1303238964343
opened,editor,org.jboss.tools.jst.jsp,3.2.0.v20110215-1251-H28-GA,"org.jboss.tools.jst.jsp.jspeditor.JSPTextEditor",1303238964906
activated,editor,org.jboss.tools.jst.jsp,3.2.0.v20110215-1251-H28-GA,"org.jboss.tools.jst.jsp.jspeditor.JSPTextEditor",1303238965093
deactivated,workbench,org.eclipse.ui.workbench,3.6.2.M20110210-1200,"",1303239029281
activated,workbench,org.eclipse.ui.workbench,3.6.2.M20110210-1200,"",1303239029281
deactivated,workbench,org.eclipse.ui.workbench,3.6.2.M20110210-1200,"",1303239029296
activated,workbench,org.eclipse.ui.workbench,3.6.2.M20110210-1200,"",1303239073140
deactivated,workbench,org.eclipse.ui.workbench,3.6.2.M20110210-1200,"",1303239076625
activated,workbench,org.eclipse.ui.workbench,3.6.2.M20110210-1200,"",1303239084203
activated,editor,org.jboss.tools.jst.jsp,3.2.0.v20110215-1251-H28-GA,"org.jboss.tools.jst.jsp.jspeditor.JSPTextEditor",1303239087406
executed,command,org.eclipse.ui,3.6.2.M20110203-1100,"org.eclipse.ui.edit.copy",1303239103125
started,bundle,org.jboss.tools.jst.text.ext,3.2.0.v20110215-1251-H28-GA,"org.jboss.tools.jst.text.ext",1303239103421
started,bundle,org.jboss.tools.jsf.text.ext,3.2.0.v20110215-1535-H41-GA,"org.jboss.tools.jsf.text.ext",1303239103453
deactivated,workbench,org.eclipse.ui.workbench,3.6.2.M20110210-1200,"",1303239130421
activated,workbench,org.eclipse.ui.workbench,3.6.2.M20110210-1200,"",1303239361140
started,bundle,org.jboss.tools.jsf.text.ext.richfaces,3.2.0.v20110215-1535-H41-GA,"org.jboss.tools.jsf.text.ext.richfaces",1303239363828
started,bundle,org.jboss.tools.struts.text.ext,3.1.0.v20110215-1526-H32-GA,"org.jboss.tools.struts.text.ext",1303239363890
executed,command,org.eclipse.ui,3.6.2.M20110203-1100,"org.eclipse.ui.edit.copy",1303239363906
activated,editor,org.jboss.tools.jst.jsp,3.2.0.v20110215-1251-H28-GA,"org.jboss.tools.jst.jsp.jspeditor.JSPTextEditor",1303239365734
executed,command,org.eclipse.ui,3.6.2.M20110203-1100,"org.eclipse.ui.edit.paste",1303239370078
started,bundle,org.eclipse.wst.xsl.core,1.1.0.v201004290328,"org.eclipse.wst.xsl.core",1303239370421
started,bundle,org.eclipse.wst.xsl.exslt.core,1.0.0.v201005240426,"org.eclipse.wst.xsl.exslt.core",1303239370437
started,bundle,org.eclipse.wst.dtd.core,1.1.401.v201101122255,"org.eclipse.wst.dtd.core",1303239370734
started,bundle,org.eclipse.wst.internet.cache,1.0.400.v201004280700,"org.eclipse.wst.internet.cache",1303239370843
activated,editor,org.jboss.tools.jst.jsp,3.2.0.v20110215-1251-H28-GA,"org.jboss.tools.jst.jsp.jspeditor.JSPTextEditor",1303239402000
executed,command,org.eclipse.ui,3.6.2.M20110203-1100,"org.eclipse.ui.edit.copy",1303239407171
activated,editor,org.jboss.tools.jst.jsp,3.2.0.v20110215-1251-H28-GA,"org.jboss.tools.jst.jsp.jspeditor.JSPTextEditor",1303239408218
executed,command,org.eclipse.ui,3.6.2.M20110203-1100,"org.eclipse.ui.edit.paste",1303239411218
started,bundle,org.eclipse.ltk.ui.refactoring,3.5.0.v20100526-0800,"org.eclipse.ltk.ui.refactoring",1303239419578
started,bundle,org.jboss.tools.seam.ui,3.2.0.v20110216-1818-H44-GA,"org.jboss.tools.seam.ui",1303239419640
started,bundle,org.maven.ide.eclipse.editor,0.12.1.20110112-1712,"org.maven.ide.eclipse.editor",1303239419984
started,bundle,org.maven.ide.eclipse.jdt,0.12.1.20110112-1712,"org.maven.ide.eclipse.jdt",1303239420046
started,bundle,org.maven.ide.eclipse.refactoring,0.12.1.20110112-1712,"org.maven.ide.eclipse.refactoring",1303239420437
executed,command,org.eclipse.ui,3.6.2.M20110203-1100,"org.eclipse.ui.edit.copy",1303239427734
executed,command,org.eclipse.ui,3.6.2.M20110203-1100,"org.eclipse.ui.edit.paste",1303239430062
deactivated,workbench,org.eclipse.ui.workbench,3.6.2.M20110210-1200,"",1303239434328
activated,workbench,org.eclipse.ui.workbench,3.6.2.M20110210-1200,"",1303239946968
deactivated,workbench,org.eclipse.ui.workbench,3.6.2.M20110210-1200,"",1303239949796
activated,workbench,org.eclipse.ui.workbench,3.6.2.M20110210-1200,"",1303239950000
deactivated,workbench,org.eclipse.ui.workbench,3.6.2.M20110210-1200,"",1303239950015
activated,workbench,org.eclipse.ui.workbench,3.6.2.M20110210-1200,"",1303239951703
started,bundle,org.tigris.subversion.clientadapter.javahl,1.6.15,"org.tigris.subversion.clientadapter.javahl",1303240081750
started,bundle,org.tigris.subversion.clientadapter.svnkit,1.6.15,"org.tigris.subversion.clientadapter.svnkit",1303240081765
executed,command,org.eclipse.ui,3.6.2.M20110203-1100,"org.eclipse.ui.file.save",1303240084234
started,bundle,org.jboss.tools.jmx.core,1.2.0.v20110215-1231-H25-GA,"org.jboss.tools.jmx.core",1303240084562
started,bundle,org.jboss.ide.eclipse.as.core,2.2.0.v20110216-1758-H51-GA,"org.jboss.ide.eclipse.as.core",1303240084578
activated,editor,org.jboss.tools.jst.jsp,3.2.0.v20110215-1251-H28-GA,"org.jboss.tools.jst.jsp.jspeditor.JSPTextEditor",1303240087171
executed,command,org.eclipse.ui,3.6.2.M20110203-1100,"org.eclipse.ui.edit.copy",1303240092390
activated,editor,org.jboss.tools.jst.jsp,3.2.0.v20110215-1251-H28-GA,"org.jboss.tools.jst.jsp.jspeditor.JSPTextEditor",1303240093328
executed,command,org.eclipse.ui,3.6.2.M20110203-1100,"org.eclipse.ui.edit.paste",1303240097703
executed,command,org.eclipse.ui,3.6.2.M20110203-1100,"org.eclipse.ui.file.save",1303240099093
deactivated,workbench,org.eclipse.ui.workbench,3.6.2.M20110210-1200,"",1303240158421
activated,workbench,org.eclipse.ui.workbench,3.6.2.M20110210-1200,"",1303240158421
deactivated,workbench,org.eclipse.ui.workbench,3.6.2.M20110210-1200,"",1303240158546
activated,workbench,org.eclipse.ui.workbench,3.6.2.M20110210-1200,"",1303240437296
deactivated,workbench,org.eclipse.ui.workbench,3.6.2.M20110210-1200,"",1303240930578
activated,workbench,org.eclipse.ui.workbench,3.6.2.M20110210-1200,"",1303240930593
deactivated,workbench,org.eclipse.ui.workbench,3.6.2.M20110210-1200,"",1303240930609
activated,workbench,org.eclipse.ui.workbench,3.6.2.M20110210-1200,"",1303242408234
deactivated,workbench,org.eclipse.ui.workbench,3.6.2.M20110210-1200,"",1303242416250
activated,workbench,org.eclipse.ui.workbench,3.6.2.M20110210-1200,"",1303242417296
executed,command,org.eclipse.ui.ide,3.6.2.M20101201-0800,"org.eclipse.ui.project.cleanAction",1303242417328
started,bundle,org.hibernate.eclipse.jdt.ui,3.4.0.v20110215-1252-H31-GA,"org.hibernate.eclipse.jdt.ui",1303242417421
deactivated,workbench,org.eclipse.ui.workbench,3.6.2.M20110210-1200,"",1303242418500
started,bundle,org.eclipse.jpt.core,2.3.3.v201102172310,"org.eclipse.jpt.core",1303242418531
started,bundle,org.hibernate.eclipse.console,3.4.0.v20110215-1252-H31-GA,"org.hibernate.eclipse.console",1303242418718
started,bundle,org.eclipse.jdt.apt.core,3.3.402.R36_v20110120-1000,"org.eclipse.jdt.apt.core",1303242418734
started,bundle,org.eclipse.jdt.apt.pluggable.core,1.0.301.R36_v20100727-0110,"org.eclipse.jdt.apt.pluggable.core",1303242418765
started,bundle,org.eclipse.wst.wsdl.validation,1.1.501.v201004201506,"org.eclipse.wst.wsdl.validation",1303242419640
activated,workbench,org.eclipse.ui.workbench,3.6.2.M20110210-1200,"",1303242422296
executed,command,org.eclipse.ui,3.6.2.M20110203-1100,"org.eclipse.ui.edit.copy",1303242436156
started,bundle,org.eclipse.jst.jsf.facelet.core,1.0.2.v201101042130,"org.eclipse.jst.jsf.facelet.core",1303242449609
executed,command,org.eclipse.ui,3.6.2.M20110203-1100,"org.eclipse.ui.file.save",1303242489828
executed,command,org.eclipse.ui,3.6.2.M20110203-1100,"org.eclipse.ui.file.save",1303242506093
deactivated,workbench,org.eclipse.ui.workbench,3.6.2.M20110210-1200,"",1303242508843
activated,workbench,org.eclipse.ui.workbench,3.6.2.M20110210-1200,"",1303242512250
opened,editor,org.eclipse.jdt.ui,3.6.2.r362_v20110203,"org.eclipse.jdt.ui.CompilationUnitEditor",1303242513281
activated,editor,org.eclipse.jdt.ui,3.6.2.r362_v20110203,"org.eclipse.jdt.ui.CompilationUnitEditor",1303242514734
executed,command,org.eclipse.ui,3.6.2.M20110203-1100,"org.eclipse.ui.window.nextEditor",1303242514734
started,bundle,org.eclipse.mylyn.java.tasks,3.4.0.v20100608-0100-e3x,"org.eclipse.mylyn.java.tasks",1303242519781
deactivated,workbench,org.eclipse.ui.workbench,3.6.2.M20110210-1200,"",1303242544218
activated,workbench,org.eclipse.ui.workbench,3.6.2.M20110210-1200,"",1303242544421
activated,editor,org.jboss.tools.jst.jsp,3.2.0.v20110215-1251-H28-GA,"org.jboss.tools.jst.jsp.jspeditor.JSPTextEditor",1303242544781
executed,command,org.eclipse.ui,3.6.2.M20110203-1100,"org.eclipse.ui.window.nextEditor",1303242544828
deactivated,workbench,org.eclipse.ui.workbench,3.6.2.M20110210-1200,"",1303242548062
activated,workbench,org.eclipse.ui.workbench,3.6.2.M20110210-1200,"",1303242548234
activated,editor,org.eclipse.jdt.ui,3.6.2.r362_v20110203,"org.eclipse.jdt.ui.CompilationUnitEditor",1303242548500
executed,command,org.eclipse.ui,3.6.2.M20110203-1100,"org.eclipse.ui.window.nextEditor",1303242548500
deactivated,workbench,org.eclipse.ui.workbench,3.6.2.M20110210-1200,"",1303242550671
activated,workbench,org.eclipse.ui.workbench,3.6.2.M20110210-1200,"",1303242550890
activated,editor,org.jboss.tools.jst.jsp,3.2.0.v20110215-1251-H28-GA,"org.jboss.tools.jst.jsp.jspeditor.JSPTextEditor",1303242551250
executed,command,org.eclipse.ui,3.6.2.M20110203-1100,"org.eclipse.ui.window.nextEditor",1303242551281
deactivated,workbench,org.eclipse.ui.workbench,3.6.2.M20110210-1200,"",1303242553921
activated,workbench,org.eclipse.ui.workbench,3.6.2.M20110210-1200,"",1303242554125
activated,editor,org.eclipse.jdt.ui,3.6.2.r362_v20110203,"org.eclipse.jdt.ui.CompilationUnitEditor",1303242554390
executed,command,org.eclipse.ui,3.6.2.M20110203-1100,"org.eclipse.ui.window.nextEditor",1303242554390
started,bundle,org.eclipse.jdt.junit,3.6.1.r361_v20100825-0800,"org.eclipse.jdt.junit",1303242567531
executed,command,org.eclipse.ui,3.6.2.M20110203-1100,"org.eclipse.ui.file.save",1303242579671
deactivated,workbench,org.eclipse.ui.workbench,3.6.2.M20110210-1200,"",1303243737937
activated,workbench,org.eclipse.ui.workbench,3.6.2.M20110210-1200,"",1303243737953
deactivated,workbench,org.eclipse.ui.workbench,3.6.2.M20110210-1200,"",1303243738078
activated,workbench,org.eclipse.ui.workbench,3.6.2.M20110210-1200,"",1303244183468
activated,editor,org.jboss.tools.jst.jsp,3.2.0.v20110215-1251-H28-GA,"org.jboss.tools.jst.jsp.jspeditor.JSPTextEditor",1303244189640
activated,editor,org.jboss.tools.jst.jsp,3.2.0.v20110215-1251-H28-GA,"org.jboss.tools.jst.jsp.jspeditor.JSPTextEditor",1303244222078
activated,editor,org.jboss.tools.jst.jsp,3.2.0.v20110215-1251-H28-GA,"org.jboss.tools.jst.jsp.jspeditor.JSPTextEditor",1303244225859
activated,editor,org.jboss.tools.jst.jsp,3.2.0.v20110215-1251-H28-GA,"org.jboss.tools.jst.jsp.jspeditor.JSPTextEditor",1303244228265
executed,command,org.eclipse.ui,3.6.2.M20110203-1100,"org.eclipse.ui.edit.cut",1303244237937
executed,command,org.eclipse.ui,3.6.2.M20110203-1100,"org.eclipse.ui.edit.paste",1303244240484
executed,command,org.eclipse.ui,3.6.2.M20110203-1100,"org.eclipse.ui.file.save",1303244249640
activated,view,org.eclipse.jdt.ui,3.6.2.r362_v20110203,"org.eclipse.jdt.ui.PackageExplorer",1303244255343
started,bundle,org.jboss.tools.common.gef,3.1.0.v20110215-1235-H25-GA,"org.jboss.tools.common.gef",1303244261109
started,bundle,org.jboss.tools.jst.web.tiles.ui,3.2.0.v20110215-1251-H28-GA,"org.jboss.tools.jst.web.tiles.ui",1303244261171
started,bundle,org.jboss.tools.struts.validator.ui,3.1.0.v20110215-1526-H32-GA,"org.jboss.tools.struts.validator.ui",1303244261234
started,bundle,org.eclipse.wst.xsl.ui,1.1.1.v201009091745,"org.eclipse.wst.xsl.ui",1303244262343
opened,editor,org.jboss.tools.common.model.ui,3.2.0.v20110215-1235-H25-GA,"org.jboss.tools.common.model.ui.editor.EditorPartWrapper",1303244264421
activated,editor,org.jboss.tools.common.model.ui,3.2.0.v20110215-1235-H25-GA,"org.jboss.tools.common.model.ui.editor.EditorPartWrapper",1303244265156
deactivated,workbench,org.eclipse.ui.workbench,3.6.2.M20110210-1200,"",1303244284359
executed,command,org.eclipse.ui,3.6.2.M20110203-1100,"org.eclipse.ui.edit.findReplace",1303244284390
activated,workbench,org.eclipse.ui.workbench,3.6.2.M20110210-1200,"",1303244294078
executed,command,org.eclipse.ui,3.6.2.M20110203-1100,"org.eclipse.ui.edit.copy",1303244296796
executed,command,org.eclipse.ui,3.6.2.M20110203-1100,"org.eclipse.ui.edit.paste",1303244299062
deactivated,workbench,org.eclipse.ui.workbench,3.6.2.M20110210-1200,"",1303244772156
activated,workbench,org.eclipse.ui.workbench,3.6.2.M20110210-1200,"",1303244991781
executed,command,org.eclipse.ui,3.6.2.M20110203-1100,"org.eclipse.ui.file.save",1303244996187
activated,view,org.eclipse.jdt.ui,3.6.2.r362_v20110203,"org.eclipse.jdt.ui.PackageExplorer",1303245000734
opened,editor,org.eclipse.ui.editors,3.6.1.r361_v20100825-0800,"org.eclipse.ui.DefaultTextEditor",1303245000937
activated,editor,org.eclipse.ui.editors,3.6.1.r361_v20100825-0800,"org.eclipse.ui.DefaultTextEditor",1303245001078
activated,editor,org.jboss.tools.common.model.ui,3.2.0.v20110215-1235-H25-GA,"org.jboss.tools.common.model.ui.editor.EditorPartWrapper",1303245062125
activated,editor,org.jboss.tools.jst.jsp,3.2.0.v20110215-1251-H28-GA,"org.jboss.tools.jst.jsp.jspeditor.JSPTextEditor",1303245076546
activated,editor,org.jboss.tools.common.model.ui,3.2.0.v20110215-1235-H25-GA,"org.jboss.tools.common.model.ui.editor.EditorPartWrapper",1303245107562
executed,command,org.eclipse.ui.workbench.texteditor,3.6.1.r361_v20100714-0800,"org.eclipse.ui.edit.text.delete.line",1303245108812
