what,kind,bundleId,bundleVersion,description,time
stopped,bundle,org.eclipse.jst.ws.axis2.consumption.ui,1.0.103.v201004211805,"org.eclipse.jst.ws.axis2.consumption.ui",1302299491968
stopped,bundle,org.eclipse.jst.ws.axis2.creation.core,1.0.106.v201004211805,"org.eclipse.jst.ws.axis2.creation.core",1302299492015
stopped,bundle,org.eclipse.jst.ws.axis2.consumption.core,1.0.105.v201004211805,"org.eclipse.jst.ws.axis2.consumption.core",1302299492046
stopped,bundle,org.eclipse.jst.ws.cxf.creation.ui,1.0.0.v201003311345,"org.eclipse.jst.ws.cxf.creation.ui",1302299492078
stopped,bundle,org.eclipse.jst.ws.creation.ui,1.0.510.v201011041151,"org.eclipse.jst.ws.creation.ui",1302299492140
stopped,bundle,org.eclipse.jst.ws.cxf.consumption.ui,1.0.0.v201003222311,"org.eclipse.jst.ws.cxf.consumption.ui",1302299492156
stopped,bundle,org.eclipse.jst.ws.consumption.ui,1.1.302.v201101191731,"org.eclipse.jst.ws.consumption.ui",1302299492312
stopped,bundle,org.eclipse.jst.j2ee.webservice.ui,1.1.400.v201004110600,"org.eclipse.jst.j2ee.webservice.ui",1302299492312
stopped,bundle,org.eclipse.jst.servlet.ui,1.1.404.v201101270100,"org.eclipse.jst.servlet.ui",1302299492312
stopped,bundle,org.eclipse.jst.ws.jaxws.dom.integration,1.0.0.v201004171919,"org.eclipse.jst.ws.jaxws.dom.integration",1302299492312
stopped,bundle,org.eclipse.jst.jee.ui,1.0.304.v201101272100,"org.eclipse.jst.jee.ui",1302299492312
stopped,bundle,org.eclipse.jst.j2ee.navigator.ui,1.1.403.v201012020600,"org.eclipse.jst.j2ee.navigator.ui",1302299492312
stopped,bundle,org.eclipse.jst.j2ee.jca.ui,1.1.400.v201004150700,"org.eclipse.jst.j2ee.jca.ui",1302299492375
stopped,bundle,org.eclipse.jst.j2ee.ui,1.1.404.v201101122300,"org.eclipse.jst.j2ee.ui",1302299492375
stopped,bundle,org.eclipse.jst.jsf.facelet.ui,1.0.0.v20100602,"org.eclipse.jst.jsf.facelet.ui",1302299492375
stopped,bundle,org.eclipse.jst.jsf.ui,1.3.1.v20100906,"org.eclipse.jst.jsf.ui",1302299492375
stopped,bundle,org.eclipse.jst.ws.jaxrs.ui,1.0.301.v201012020511,"org.eclipse.jst.ws.jaxrs.ui",1302299492484
stopped,bundle,org.jboss.tools.maven.ui,1.0.0.v20110216-1827-H58-GA,"org.jboss.tools.maven.ui",1302299492484
stopped,bundle,org.eclipse.jst.common.project.facet.ui,1.4.102.v201008182136,"org.eclipse.jst.common.project.facet.ui",1302299492609
stopped,bundle,org.eclipse.jst.common.ui,1.0.3.v201101101700,"org.eclipse.jst.common.ui",1302299492703
stopped,bundle,org.eclipse.jst.j2ee.ejb.annotations.emitter,1.1.200.v200909290826,"org.eclipse.jst.j2ee.ejb.annotations.emitter",1302299492781
stopped,bundle,org.eclipse.jst.jsf.apache.trinidad.tagsupport,1.1.101.v20100906,"org.eclipse.jst.jsf.apache.trinidad.tagsupport",1302299492812
stopped,bundle,org.eclipse.jst.jsf.facesconfig.ui,1.2.1.v201101112207,"org.eclipse.jst.jsf.facesconfig.ui",1302299492875
stopped,bundle,org.eclipse.jst.pagedesigner.jsf.ui,1.2.0.v20100414,"org.eclipse.jst.pagedesigner.jsf.ui",1302299492953
stopped,bundle,org.eclipse.jst.pagedesigner,1.3.2.v201101211220,"org.eclipse.jst.pagedesigner",1302299493062
stopped,bundle,org.eclipse.jst.jsf.common.ui,1.2.0.v20100329,"org.eclipse.jst.jsf.common.ui",1302299493109
stopped,bundle,org.eclipse.jst.jsf.facelet.core,1.0.2.v201101042130,"org.eclipse.jst.jsf.facelet.core",1302299493156
stopped,bundle,org.eclipse.jst.jsf.core,1.3.3.v201102021253,"org.eclipse.jst.jsf.core",1302299493156
stopped,bundle,org.eclipse.jst.jsf.standard.tagsupport,1.2.2.v20101027,"org.eclipse.jst.jsf.standard.tagsupport",1302299493218
stopped,bundle,org.eclipse.jst.pagedesigner.jsp.core,1.2.0.v20100308,"org.eclipse.jst.pagedesigner.jsp.core",1302299493421
stopped,bundle,org.eclipse.jst.jsf.common,1.2.2.v201101211220,"org.eclipse.jst.jsf.common",1302299493421
stopped,bundle,org.eclipse.wst.jsdt.web.support.jsp,1.0.303.v201012160047,"org.eclipse.wst.jsdt.web.support.jsp",1302299493515
stopped,bundle,org.eclipse.jst.jsp.ui,1.1.503.v201101262228,"org.eclipse.jst.jsp.ui",1302299493515
stopped,bundle,org.eclipse.jst.ws.cxf.consumption.core,1.0.0.v201003222311,"org.eclipse.jst.ws.cxf.consumption.core",1302299493546
stopped,bundle,org.eclipse.jst.ws.cxf.creation.core,1.0.0.v201003311345,"org.eclipse.jst.ws.cxf.creation.core",1302299493593
stopped,bundle,org.eclipse.jst.ws.cxf.ui,1.0.0.v201004171919,"org.eclipse.jst.ws.cxf.ui",1302299493625
stopped,bundle,org.eclipse.jst.ws.cxf.core,1.0.0.v201003311345,"org.eclipse.jst.ws.cxf.core",1302299493625
stopped,bundle,org.eclipse.jst.ws.jaxws.ui,1.0.1.v201008232129,"org.eclipse.jst.ws.jaxws.ui",1302299493687
stopped,bundle,org.eclipse.jst.ws.jaxws.core,1.0.0.v201004171919,"org.eclipse.jst.ws.jaxws.core",1302299493687
stopped,bundle,org.eclipse.jst.ws.annotations.core,1.0.0.v201004262257,"org.eclipse.jst.ws.annotations.core",1302299493734
stopped,bundle,org.eclipse.jst.ws.axis2.ui,1.0.303.v201003110431,"org.eclipse.jst.ws.axis2.ui",1302299493734
stopped,bundle,org.eclipse.jst.ws.uddiregistry,1.0.500.v201004211805,"org.eclipse.jst.ws.uddiregistry",1302299493765
stopped,bundle,org.eclipse.jst.ws.ui,1.0.403.v201004211805,"org.eclipse.jst.ws.ui",1302299493812
stopped,bundle,org.jboss.tools.common.gef,3.1.0.v20110215-1235-H25-GA,"org.jboss.tools.common.gef",1302299493812
stopped,bundle,org.jboss.tools.common.projecttemplates,3.2.0.v20110215-1235-H25-GA,"org.jboss.tools.common.projecttemplates",1302299493812
stopped,bundle,org.jboss.tools.common.text.xml,3.2.0.v20110215-1235-H25-GA,"org.jboss.tools.common.text.xml",1302299493812
stopped,bundle,org.jboss.tools.jst.firstrun,3.2.0.v20110215-1251-H28-GA,"org.jboss.tools.jst.firstrun",1302299493812
stopped,bundle,org.jboss.tools.maven.core,1.1.0.v20110216-1827-H58-GA,"org.jboss.tools.maven.core",1302299493828
stopped,bundle,org.jboss.tools.vpe.xulrunner,3.2.0.v20110215-1513-H28-GA,"org.jboss.tools.vpe.xulrunner",1302299493828
stopped,bundle,org.jboss.tools.common,3.2.0.v20110215-1235-H25-GA,"org.jboss.tools.common",1302299493828
stopped,bundle,org.maven.ide.eclipse.wtp,0.11.1.20101108-1810,"org.maven.ide.eclipse.wtp",1302299493828
stopped,bundle,org.maven.ide.eclipse.jdt,0.12.1.20110112-1712,"org.maven.ide.eclipse.jdt",1302299493828
stopped,bundle,org.maven.ide.eclipse.refactoring,0.12.1.20110112-1712,"org.maven.ide.eclipse.refactoring",1302299493828
stopped,bundle,com.collabnet.subversion.merge,2.2.3,"com.collabnet.subversion.merge",1302299493828
stopped,bundle,org.tigris.subversion.subclipse.graph,1.0.9,"org.tigris.subversion.subclipse.graph",1302299493828
stopped,bundle,org.tigris.subversion.subclipse.mylyn,3.0.0,"org.tigris.subversion.subclipse.mylyn",1302299493828
stopped,bundle,org.tigris.subversion.subclipse.tools.usage,1.0.1,"org.tigris.subversion.subclipse.tools.usage",1302299493828
stopped,bundle,org.tigris.subversion.subclipse.ui,1.6.17,"org.tigris.subversion.subclipse.ui",1302299493828
stopped,bundle,org.eclipse.jdt.ui,3.6.2.r362_v20110203,"org.eclipse.jdt.ui",1302299493828
stopped,bundle,org.eclipse.rse.importexport,1.2.101.v201008191400,"org.eclipse.rse.importexport",1302299493890
stopped,bundle,org.eclipse.rse.subsystems.shells.telnet,1.2.0.v200905272300,"org.eclipse.rse.subsystems.shells.telnet",1302299493937
stopped,bundle,org.eclipse.rse.useractions,1.1.100.v200905272300,"org.eclipse.rse.useractions",1302299493937
activated,perspective,org.jboss.tools.jst.web.ui,,"org.jboss.tools.jst.web.ui.WebDevelopmentPerspective",1302528639562
started,bundle,org.eclipse.osgi,3.6.2.R36x_v20110210,"org.eclipse.osgi",1302528639578
started,bundle,org.eclipse.equinox.simpleconfigurator,1.0.200.v20100503,"org.eclipse.equinox.simpleconfigurator",1302528639578
started,bundle,com.ibm.icu,4.2.1.v20100412,"com.ibm.icu",1302528639609
started,bundle,org.eclipse.compare.core,3.5.101.R36x_v20100929-0800,"org.eclipse.compare.core",1302528639640
started,bundle,org.eclipse.core.contenttype,3.4.100.v20100505-1235,"org.eclipse.core.contenttype",1302528639640
started,bundle,org.eclipse.core.databinding.observable,1.3.0.I20100601-0800,"org.eclipse.core.databinding.observable",1302528639703
started,bundle,org.eclipse.core.expressions,3.4.200.v20100505,"org.eclipse.core.expressions",1302528639718
started,bundle,org.eclipse.core.filebuffers,3.5.100.v20100520-0800,"org.eclipse.core.filebuffers",1302528639718
started,bundle,org.eclipse.core.filesystem,1.3.1.R36x_v20100727-0745,"org.eclipse.core.filesystem",1302528639750
started,bundle,org.eclipse.core.jobs,3.5.1.R36x_v20100824,"org.eclipse.core.jobs",1302528639750
started,bundle,org.eclipse.core.net,1.2.100.I20100511-0800,"org.eclipse.core.net",1302528639781
started,bundle,org.eclipse.core.resources,3.6.1.R36x_v20110131-1630,"org.eclipse.core.resources",1302528639968
started,bundle,org.eclipse.core.runtime,3.6.0.v20100505,"org.eclipse.core.runtime",1302528639968
started,bundle,org.eclipse.core.runtime.compatibility,3.2.100.v20100505,"org.eclipse.core.runtime.compatibility",1302528640000
started,bundle,org.eclipse.core.runtime.compatibility.auth,3.2.200.v20100517,"org.eclipse.core.runtime.compatibility.auth",1302528640000
started,bundle,org.eclipse.debug.core,3.6.0.v20100519,"org.eclipse.debug.core",1302528640156
started,bundle,org.eclipse.debug.ui,3.6.3.v20101201_r362,"org.eclipse.debug.ui",1302528640406
started,bundle,org.eclipse.emf.common,2.6.0.v20100914-1218,"org.eclipse.emf.common",1302528640625
started,bundle,org.eclipse.emf.ecore,2.6.1.v20100914-1218,"org.eclipse.emf.ecore",1302528640968
started,bundle,org.eclipse.emf.ecore.xmi,2.5.0.v20100521-1846,"org.eclipse.emf.ecore.xmi",1302528641062
started,bundle,org.eclipse.epp.usagedata.gathering,1.3.1.R201102081640,"org.eclipse.epp.usagedata.gathering",1302528641171
started,bundle,org.eclipse.epp.usagedata.recording,1.3.1.R201102081640,"org.eclipse.epp.usagedata.recording",1302528641281
started,bundle,org.eclipse.equinox.app,1.3.1.R36x_v20100803,"org.eclipse.equinox.app",1302528641281
started,bundle,org.eclipse.equinox.common,3.6.0.v20100503,"org.eclipse.equinox.common",1302528641281
started,bundle,org.eclipse.equinox.ds,1.2.1.R36x_v20100803,"org.eclipse.equinox.ds",1302528641281
started,bundle,org.eclipse.equinox.event,1.2.0.v20100503,"org.eclipse.equinox.event",1302528641296
started,bundle,org.eclipse.equinox.p2.artifact.repository,1.1.1.R36x_v20100901,"org.eclipse.equinox.p2.artifact.repository",1302528641359
started,bundle,org.eclipse.equinox.p2.core,2.0.3.R36x_v20110111,"org.eclipse.equinox.p2.core",1302528641359
started,bundle,org.eclipse.equinox.p2.director,2.0.3.R36x_v20101117-1018,"org.eclipse.equinox.p2.director",1302528641390
started,bundle,org.eclipse.equinox.p2.directorywatcher,1.0.203.R36x_v20101220,"org.eclipse.equinox.p2.directorywatcher",1302528641390
started,bundle,org.eclipse.equinox.p2.engine,2.0.1.R36x_v20110201,"org.eclipse.equinox.p2.engine",1302528641531
started,bundle,org.eclipse.equinox.p2.extensionlocation,1.2.0.v20100518,"org.eclipse.equinox.p2.extensionlocation",1302528641546
started,bundle,org.eclipse.equinox.p2.metadata,2.0.1.R36x_v20101202,"org.eclipse.equinox.p2.metadata",1302528641562
started,bundle,org.eclipse.equinox.p2.metadata.repository,1.1.0.v20100513,"org.eclipse.equinox.p2.metadata.repository",1302528641609
started,bundle,org.eclipse.equinox.p2.operations,2.0.0.v20100510,"org.eclipse.equinox.p2.operations",1302528641640
started,bundle,org.eclipse.equinox.p2.publisher,1.1.2.v20100824-2220,"org.eclipse.equinox.p2.publisher",1302528641781
started,bundle,org.eclipse.equinox.p2.reconciler.dropins,1.1.2.R36x_v20110114,"org.eclipse.equinox.p2.reconciler.dropins",1302528641812
started,bundle,org.eclipse.equinox.p2.repository,2.0.2.R36x_v20110111-1500,"org.eclipse.equinox.p2.repository",1302528641921
started,bundle,org.eclipse.equinox.p2.touchpoint.eclipse,2.0.3.R36x_v20101202,"org.eclipse.equinox.p2.touchpoint.eclipse",1302528641937
started,bundle,org.eclipse.equinox.p2.ui.sdk.scheduler,1.0.0.v20100507-1815,"org.eclipse.equinox.p2.ui.sdk.scheduler",1302528641937
started,bundle,org.eclipse.equinox.p2.updatechecker,1.1.101.R36x_v20100823,"org.eclipse.equinox.p2.updatechecker",1302528641968
started,bundle,org.eclipse.equinox.preferences,3.3.0.v20100503,"org.eclipse.equinox.preferences",1302528641968
started,bundle,org.eclipse.equinox.registry,3.5.0.v20100503,"org.eclipse.equinox.registry",1302528642000
started,bundle,org.eclipse.equinox.security,1.0.200.v20100503,"org.eclipse.equinox.security",1302528642015
started,bundle,org.eclipse.equinox.security.ui,1.0.200.v20100503,"org.eclipse.equinox.security.ui",1302528642031
started,bundle,org.eclipse.equinox.util,1.0.200.v20100503,"org.eclipse.equinox.util",1302528642046
started,bundle,org.eclipse.gef,3.6.2.v20110110-2020,"org.eclipse.gef",1302528642078
started,bundle,org.eclipse.help,3.5.0.v20100524,"org.eclipse.help",1302528643156
started,bundle,org.eclipse.jdt.core,3.6.2.v_A76_R36x,"org.eclipse.jdt.core",1302528643281
started,bundle,org.eclipse.jdt.core.manipulation,1.3.0.v20100520-0800,"org.eclipse.jdt.core.manipulation",1302528643281
started,bundle,org.eclipse.jdt.launching,3.5.200.v20110105_r362,"org.eclipse.jdt.launching",1302528643406
started,bundle,org.eclipse.jdt.ui,3.6.2.r362_v20110203,"org.eclipse.jdt.ui",1302528643609
started,bundle,org.eclipse.jem,2.0.400.v201005110200,"org.eclipse.jem",1302528643718
started,bundle,org.eclipse.jem.util,2.1.3.v201012070000,"org.eclipse.jem.util",1302528643718
started,bundle,org.eclipse.jem.workbench,2.0.300.v200910290230,"org.eclipse.jem.workbench",1302528643750
started,bundle,org.eclipse.jface,3.6.2.M20110210-1200,"org.eclipse.jface",1302528643812
started,bundle,org.eclipse.jst.common.frameworks,1.1.403.v201012160000,"org.eclipse.jst.common.frameworks",1302528643812
started,bundle,org.eclipse.jst.common.project.facet.core,1.4.102.v201008182136,"org.eclipse.jst.common.project.facet.core",1302528643906
started,bundle,org.eclipse.jst.j2ee,1.1.404.v201102081800,"org.eclipse.jst.j2ee",1302528644015
started,bundle,org.eclipse.jst.j2ee.core,1.2.4.v201102101900,"org.eclipse.jst.j2ee.core",1302528644171
started,bundle,org.eclipse.jst.j2ee.web,1.1.404.v201102030400,"org.eclipse.jst.j2ee.web",1302528644328
started,bundle,org.eclipse.jst.jsp.core,1.2.304.v201102160550,"org.eclipse.jst.jsp.core",1302528644406
started,bundle,org.eclipse.jst.jsp.ui,1.1.503.v201101262228,"org.eclipse.jst.jsp.ui",1302528644500
started,bundle,org.eclipse.jst.server.core,1.2.101.v20100421,"org.eclipse.jst.server.core",1302528644531
started,bundle,org.eclipse.jst.server.tomcat.core,1.1.203.v20110201,"org.eclipse.jst.server.tomcat.core",1302528644625
started,bundle,org.eclipse.jst.ws.jaxrs.core,1.0.201.v201011231540,"org.eclipse.jst.ws.jaxrs.core",1302528644687
started,bundle,org.eclipse.jst.ws.jaxws.utils,1.0.0.v201004171919,"org.eclipse.jst.ws.jaxws.utils",1302528644703
started,bundle,org.eclipse.mylyn.commons.net,3.4.1.v20100625-2100-e3x,"org.eclipse.mylyn.commons.net",1302528644703
started,bundle,org.eclipse.mylyn.monitor.ui,3.4.1.v20110131-0100-e3x,"org.eclipse.mylyn.monitor.ui",1302528644718
started,bundle,org.eclipse.pde.launching,3.6.0.v20100601,"org.eclipse.pde.launching",1302528644718
started,bundle,org.eclipse.pde.ui,3.6.1.v20110210_r362,"org.eclipse.pde.ui",1302528644812
started,bundle,org.eclipse.search,3.6.0.v20100520-0800,"org.eclipse.search",1302528644890
started,bundle,org.eclipse.team.core,3.5.101.R36x_v20110203-1036,"org.eclipse.team.core",1302528644968
started,bundle,org.eclipse.team.ui,3.5.102.R36x_v20110203-1036,"org.eclipse.team.ui",1302528645062
started,bundle,org.eclipse.ui,3.6.2.M20110203-1100,"org.eclipse.ui",1302528645140
started,bundle,org.eclipse.ui.console,3.5.0.v20100526,"org.eclipse.ui.console",1302528645156
started,bundle,org.eclipse.ui.editors,3.6.1.r361_v20100825-0800,"org.eclipse.ui.editors",1302528645156
started,bundle,org.eclipse.ui.forms,3.5.2.r36_v20100702,"org.eclipse.ui.forms",1302528645281
started,bundle,org.eclipse.ui.ide,3.6.2.M20101201-0800,"org.eclipse.ui.ide",1302528645390
started,bundle,org.eclipse.ui.net,1.2.100.I20100505-1245,"org.eclipse.ui.net",1302528645406
started,bundle,org.eclipse.ui.views,3.5.1.M20110202-0800,"org.eclipse.ui.views",1302528645406
started,bundle,org.eclipse.ui.views.log,1.0.100.v20110210_r362,"org.eclipse.ui.views.log",1302528645437
started,bundle,org.eclipse.ui.workbench,3.6.2.M20110210-1200,"org.eclipse.ui.workbench",1302528645468
started,bundle,org.eclipse.ui.workbench.texteditor,3.6.1.r361_v20100714-0800,"org.eclipse.ui.workbench.texteditor",1302528645578
started,bundle,org.eclipse.wst.common.core,1.2.0.v200908252030,"org.eclipse.wst.common.core",1302528645609
started,bundle,org.eclipse.wst.common.emf,1.2.3.v201012100400,"org.eclipse.wst.common.emf",1302528645671
started,bundle,org.eclipse.wst.common.emfworkbench.integration,1.2.3.v201012020600,"org.eclipse.wst.common.emfworkbench.integration",1302528645734
started,bundle,org.eclipse.wst.common.frameworks,1.2.0.v201003040800,"org.eclipse.wst.common.frameworks",1302528645796
started,bundle,org.eclipse.wst.common.frameworks.ui,1.2.0.v201004080500,"org.eclipse.wst.common.frameworks.ui",1302528645859
started,bundle,org.eclipse.wst.common.modulecore,1.2.5.v201101270100,"org.eclipse.wst.common.modulecore",1302528645984
started,bundle,org.eclipse.wst.common.project.facet.core,1.4.102.v201008170019,"org.eclipse.wst.common.project.facet.core",1302528646062
started,bundle,org.eclipse.wst.common.uriresolver,1.1.401.v201004280700,"org.eclipse.wst.common.uriresolver",1302528646109
started,bundle,org.eclipse.wst.dtd.ui,1.0.500.v201004290328,"org.eclipse.wst.dtd.ui",1302528646187
started,bundle,org.eclipse.wst.internet.cache,1.0.400.v201004280700,"org.eclipse.wst.internet.cache",1302528646265
started,bundle,org.eclipse.wst.server.core,1.1.206.v20110110,"org.eclipse.wst.server.core",1302528646375
started,bundle,org.eclipse.wst.server.ui,1.1.207.v20110119,"org.eclipse.wst.server.ui",1302528646421
started,bundle,org.eclipse.wst.sse.core,1.1.504.v201102160550,"org.eclipse.wst.sse.core",1302528646437
started,bundle,org.eclipse.wst.sse.ui,1.2.3.v201102102045,"org.eclipse.wst.sse.ui",1302528646546
started,bundle,org.eclipse.wst.validation,1.2.201.v201101270100,"org.eclipse.wst.validation",1302528646546
started,bundle,org.eclipse.wst.web,1.1.402.v201012160000,"org.eclipse.wst.web",1302528646578
started,bundle,org.eclipse.wst.xml.core,1.1.503.v201102102045,"org.eclipse.wst.xml.core",1302528646671
started,bundle,org.eclipse.wst.xml.ui,1.1.103.v201101122108,"org.eclipse.wst.xml.ui",1302528646765
started,bundle,org.eclipse.wst.xsd.core,1.1.503.v201011121919,"org.eclipse.wst.xsd.core",1302528646765
started,bundle,org.eclipse.wst.xsl.core,1.1.0.v201004290328,"org.eclipse.wst.xsl.core",1302528646812
started,bundle,org.eclipse.wst.xsl.exslt.core,1.0.0.v201005240426,"org.eclipse.wst.xsl.exslt.core",1302528646812
started,bundle,org.eclipse.wst.xsl.ui,1.1.1.v201009091745,"org.eclipse.wst.xsl.ui",1302528646875
started,bundle,org.eclipse.xsd,2.6.0.v20100914-1218,"org.eclipse.xsd",1302528646875
started,bundle,org.hibernate.eclipse,3.4.0.v20110215-1252-H31-GA,"org.hibernate.eclipse",1302528646984
started,bundle,org.hibernate.eclipse.mapper,3.4.0.v20110215-1252-H31-GA,"org.hibernate.eclipse.mapper",1302528647031
started,bundle,org.jboss.tools.common,3.2.0.v20110215-1235-H25-GA,"org.jboss.tools.common",1302528647031
started,bundle,org.jboss.tools.common.el.core,3.2.0.v20110215-1235-H25-GA,"org.jboss.tools.common.el.core",1302528647078
started,bundle,org.jboss.tools.common.gef,3.1.0.v20110215-1235-H25-GA,"org.jboss.tools.common.gef",1302528647125
started,bundle,org.jboss.tools.common.model,3.2.0.v20110215-1235-H25-GA,"org.jboss.tools.common.model",1302528647234
started,bundle,org.jboss.tools.common.model.ui,3.2.0.v20110215-1235-H25-GA,"org.jboss.tools.common.model.ui",1302528647437
started,bundle,org.jboss.tools.common.projecttemplates,3.2.0.v20110215-1235-H25-GA,"org.jboss.tools.common.projecttemplates",1302528647453
started,bundle,org.jboss.tools.common.text.ext,3.2.0.v20110215-1235-H25-GA,"org.jboss.tools.common.text.ext",1302528647453
started,bundle,org.jboss.tools.common.text.xml,3.2.0.v20110215-1235-H25-GA,"org.jboss.tools.common.text.xml",1302528647453
started,bundle,org.jboss.tools.common.verification,3.2.0.v20110215-1235-H25-GA,"org.jboss.tools.common.verification",1302528647453
started,bundle,org.jboss.tools.common.verification.ui,3.1.0.v20110215-1235-H25-GA,"org.jboss.tools.common.verification.ui",1302528647515
started,bundle,org.jboss.tools.hibernate.xml,3.4.0.v20110215-1252-H31-GA,"org.jboss.tools.hibernate.xml",1302528647515
started,bundle,org.jboss.tools.jsf,3.2.0.v20110215-1535-H41-GA,"org.jboss.tools.jsf",1302528647531
started,bundle,org.jboss.tools.jsf.ui,3.2.0.v20110215-1535-H41-GA,"org.jboss.tools.jsf.ui",1302528647578
started,bundle,org.jboss.tools.jsf.verification,3.1.0.v20110215-1535-H41-GA,"org.jboss.tools.jsf.verification",1302528647578
started,bundle,org.jboss.tools.jst.jsp,3.2.0.v20110215-1251-H28-GA,"org.jboss.tools.jst.jsp",1302528647609
started,bundle,org.jboss.tools.jst.web,3.2.0.v20110215-1251-H28-GA,"org.jboss.tools.jst.web",1302528647609
started,bundle,org.jboss.tools.jst.web.tiles,3.1.0.v20110215-1251-H28-GA,"org.jboss.tools.jst.web.tiles",1302528647609
started,bundle,org.jboss.tools.jst.web.tiles.ui,3.2.0.v20110215-1251-H28-GA,"org.jboss.tools.jst.web.tiles.ui",1302528647656
started,bundle,org.jboss.tools.jst.web.ui,3.2.0.v20110215-1251-H28-GA,"org.jboss.tools.jst.web.ui",1302528647703
started,bundle,org.jboss.tools.jst.web.verification,3.1.0.v20110215-1251-H28-GA,"org.jboss.tools.jst.web.verification",1302528647703
started,bundle,org.jboss.tools.seam.core,3.2.0.v20110216-1818-H44-GA,"org.jboss.tools.seam.core",1302528647750
started,bundle,org.jboss.tools.seam.pages.xml,3.1.0.v20110216-1818-H44-GA,"org.jboss.tools.seam.pages.xml",1302528647781
started,bundle,org.jboss.tools.seam.ui,3.2.0.v20110216-1818-H44-GA,"org.jboss.tools.seam.ui",1302528647828
started,bundle,org.jboss.tools.seam.xml,3.2.0.v20110216-1818-H44-GA,"org.jboss.tools.seam.xml",1302528647859
started,bundle,org.jboss.tools.struts,3.2.0.v20110215-1526-H32-GA,"org.jboss.tools.struts",1302528647875
started,bundle,org.jboss.tools.struts.ui,3.1.0.v20110215-1526-H32-GA,"org.jboss.tools.struts.ui",1302528647906
started,bundle,org.jboss.tools.struts.validator.ui,3.1.0.v20110215-1526-H32-GA,"org.jboss.tools.struts.validator.ui",1302528647937
started,bundle,org.jboss.tools.struts.verification,3.1.0.v20110215-1526-H32-GA,"org.jboss.tools.struts.verification",1302528647984
started,bundle,org.maven.ide.eclipse,0.12.1.20110112-1712,"org.maven.ide.eclipse",1302528647984
started,bundle,org.maven.ide.eclipse.editor.xml,0.12.1.20110112-1712,"org.maven.ide.eclipse.editor.xml",1302528647984
started,bundle,org.maven.ide.eclipse.maven_model_edit,0.12.1.20110112-1712,"org.maven.ide.eclipse.maven_model_edit",1302528648031
started,bundle,com.adobe.flexbuilder.multisdk,4.0.1.277662,"com.adobe.flexbuilder.multisdk",1302528648078
started,bundle,com.adobe.flexbuilder.project,4.0.1.277662,"com.adobe.flexbuilder.project",1302528648078
started,bundle,com.adobe.flexbuilder.utils.osnative,4.0.1.277662,"com.adobe.flexbuilder.utils.osnative",1302528648093
started,bundle,com.adobe.flexide.nativelibs,4.0.1.277662,"com.adobe.flexide.nativelibs",1302528648093
started,bundle,com.collabnet.subversion.merge,2.2.3,"com.collabnet.subversion.merge",1302528648156
started,bundle,org.tigris.subversion.clientadapter,1.6.12,"org.tigris.subversion.clientadapter",1302528648156
started,bundle,org.tigris.subversion.subclipse.core,1.6.17,"org.tigris.subversion.subclipse.core",1302528648171
started,bundle,org.tigris.subversion.subclipse.ui,1.6.17,"org.tigris.subversion.subclipse.ui",1302528648265
os,sysinfo,,,"win32",1302528648265
arch,sysinfo,,,"x86",1302528648265
ws,sysinfo,,,"win32",1302528648265
locale,sysinfo,,,"es_AR",1302528648265
processors,sysinfo,,,"2",1302528648265
java.runtime.name,sysinfo,,,"Java(TM) SE Runtime Environment",1302528648265
java.runtime.version,sysinfo,,,"1.6.0_18-b07",1302528648265
java.specification.name,sysinfo,,,"Java Platform API Specification",1302528648265
java.specification.vendor,sysinfo,,,"Sun Microsystems Inc.",1302528648265
java.specification.version,sysinfo,,,"1.6",1302528648265
java.vendor,sysinfo,,,"Sun Microsystems Inc.",1302528648265
java.version,sysinfo,,,"1.6.0_18",1302528648265
java.vm.info,sysinfo,,,"mixed mode, sharing",1302528648265
java.vm.name,sysinfo,,,"Java HotSpot(TM) Client VM",1302528648265
java.vm.specification.name,sysinfo,,,"Java Virtual Machine Specification",1302528648265
java.vm.specification.vendor,sysinfo,,,"Sun Microsystems Inc.",1302528648265
java.vm.specification.version,sysinfo,,,"1.0",1302528648265
java.vm.vendor,sysinfo,,,"Sun Microsystems Inc.",1302528648265
java.vm.version,sysinfo,,,"16.0-b13",1302528648265
started,bundle,org.eclipse.mylyn.bugzilla.ui,3.4.3.v20110131-0100-e3x,"org.eclipse.mylyn.bugzilla.ui",1302528649343
started,bundle,org.eclipse.mylyn.context.core,3.4.1.v20100909-0100-e3x,"org.eclipse.mylyn.context.core",1302528652546
started,bundle,org.eclipse.mylyn.context.ui,3.4.2.v20110131-0100-e3x,"org.eclipse.mylyn.context.ui",1302528652984
started,bundle,org.eclipse.jsch.core,1.1.200.I20100505-1245,"org.eclipse.jsch.core",1302528653312
started,bundle,org.eclipse.team.cvs.core,3.3.301.R36x_v20110119-0815,"org.eclipse.team.cvs.core",1302528653390
started,bundle,org.eclipse.mylyn.tasks.ui,3.4.3.v20110131-0100-e3x,"org.eclipse.mylyn.tasks.ui",1302528654500
started,bundle,org.eclipse.mylyn.team.ui,3.4.3.v20110131-0100-e3x,"org.eclipse.mylyn.team.ui",1302528654984
