what,kind,bundleId,bundleVersion,description,time
activated,workbench,org.eclipse.ui.workbench,3.6.2.M20110210-1200,"",1303420699750
executed,command,org.eclipse.ui,3.6.2.M20110203-1100,"org.eclipse.ui.edit.copy",1303420711187
deactivated,workbench,org.eclipse.ui.workbench,3.6.2.M20110210-1200,"",1303420711953
activated,workbench,org.eclipse.ui.workbench,3.6.2.M20110210-1200,"",1303420801500
activated,view,org.eclipse.jdt.ui,3.6.2.r362_v20110203,"org.eclipse.jdt.ui.PackageExplorer",1303420815843
activated,editor,org.jboss.tools.jst.jsp,3.2.0.v20110215-1251-H28-GA,"org.jboss.tools.jst.jsp.jspeditor.JSPTextEditor",1303420816218
deactivated,workbench,org.eclipse.ui.workbench,3.6.2.M20110210-1200,"",1303420841140
activated,workbench,org.eclipse.ui.workbench,3.6.2.M20110210-1200,"",1303420854062
activated,view,org.eclipse.jdt.ui,3.6.2.r362_v20110203,"org.eclipse.jdt.ui.PackageExplorer",1303420855609
activated,editor,org.jboss.tools.jst.jsp,3.2.0.v20110215-1251-H28-GA,"org.jboss.tools.jst.jsp.jspeditor.JSPTextEditor",1303420855890
activated,view,org.eclipse.jdt.ui,3.6.2.r362_v20110203,"org.eclipse.jdt.ui.PackageExplorer",1303420859218
activated,editor,org.jboss.tools.jst.jsp,3.2.0.v20110215-1251-H28-GA,"org.jboss.tools.jst.jsp.jspeditor.JSPTextEditor",1303420865031
error,log,,,"IStructuredDocumentRegion management failed.",1303420877125
executed,command,org.eclipse.ui,3.6.2.M20110203-1100,"org.eclipse.ui.edit.undo",1303420877203
activated,view,org.eclipse.jdt.ui,3.6.2.r362_v20110203,"org.eclipse.jdt.ui.PackageExplorer",1303420881609
activated,editor,org.jboss.tools.jst.jsp,3.2.0.v20110215-1251-H28-GA,"org.jboss.tools.jst.jsp.jspeditor.JSPTextEditor",1303420881984
deactivated,workbench,org.eclipse.ui.workbench,3.6.2.M20110210-1200,"",1303420909734
activated,workbench,org.eclipse.ui.workbench,3.6.2.M20110210-1200,"",1303420912875
executed,command,org.eclipse.ui,3.6.2.M20110203-1100,"org.eclipse.ui.edit.selectAll",1303420914390
deactivated,workbench,org.eclipse.ui.workbench,3.6.2.M20110210-1200,"",1303420922765
activated,workbench,org.eclipse.ui.workbench,3.6.2.M20110210-1200,"",1303420923890
executed,command,org.eclipse.ui,3.6.2.M20110203-1100,"org.eclipse.ui.edit.copy",1303420930015
deactivated,workbench,org.eclipse.ui.workbench,3.6.2.M20110210-1200,"",1303420930406
activated,workbench,org.eclipse.ui.workbench,3.6.2.M20110210-1200,"",1303420940328
activated,view,org.eclipse.jdt.ui,3.6.2.r362_v20110203,"org.eclipse.jdt.ui.PackageExplorer",1303420944203
activated,editor,org.jboss.tools.jst.jsp,3.2.0.v20110215-1251-H28-GA,"org.jboss.tools.jst.jsp.jspeditor.JSPTextEditor",1303420946187
executed,command,org.eclipse.ui,3.6.2.M20110203-1100,"org.eclipse.ui.edit.selectAll",1303420947546
executed,command,org.eclipse.ui,3.6.2.M20110203-1100,"org.eclipse.ui.edit.copy",1303420948453
activated,view,org.eclipse.jdt.ui,3.6.2.r362_v20110203,"org.eclipse.jdt.ui.PackageExplorer",1303420949843
activated,editor,org.jboss.tools.jst.jsp,3.2.0.v20110215-1251-H28-GA,"org.jboss.tools.jst.jsp.jspeditor.JSPTextEditor",1303420951375
executed,command,org.eclipse.ui,3.6.2.M20110203-1100,"org.eclipse.ui.edit.selectAll",1303420952609
executed,command,org.eclipse.ui,3.6.2.M20110203-1100,"org.eclipse.ui.edit.delete",1303420953046
executed,command,org.eclipse.ui,3.6.2.M20110203-1100,"org.eclipse.ui.edit.paste",1303420953531
deactivated,workbench,org.eclipse.ui.workbench,3.6.2.M20110210-1200,"",1303420963531
activated,workbench,org.eclipse.ui.workbench,3.6.2.M20110210-1200,"",1303420965078
deactivated,workbench,org.eclipse.ui.workbench,3.6.2.M20110210-1200,"",1303421042468
activated,workbench,org.eclipse.ui.workbench,3.6.2.M20110210-1200,"",1303421055453
executed,command,org.eclipse.ui,3.6.2.M20110203-1100,"org.eclipse.ui.edit.delete",1303421070531
executed,command,org.eclipse.ui,3.6.2.M20110203-1100,"org.eclipse.ui.edit.delete",1303421070906
executed,command,org.eclipse.ui,3.6.2.M20110203-1100,"org.eclipse.ui.edit.delete",1303421070937
executed,command,org.eclipse.ui,3.6.2.M20110203-1100,"org.eclipse.ui.edit.delete",1303421070968
executed,command,org.eclipse.ui,3.6.2.M20110203-1100,"org.eclipse.ui.edit.delete",1303421070984
executed,command,org.eclipse.ui,3.6.2.M20110203-1100,"org.eclipse.ui.edit.delete",1303421071015
executed,command,org.eclipse.ui,3.6.2.M20110203-1100,"org.eclipse.ui.edit.delete",1303421071046
executed,command,org.eclipse.ui,3.6.2.M20110203-1100,"org.eclipse.ui.edit.delete",1303421071078
executed,command,org.eclipse.ui,3.6.2.M20110203-1100,"org.eclipse.ui.edit.delete",1303421071109
executed,command,org.eclipse.ui,3.6.2.M20110203-1100,"org.eclipse.ui.edit.delete",1303421071437
executed,command,org.eclipse.ui,3.6.2.M20110203-1100,"org.eclipse.ui.edit.delete",1303421071656
executed,command,org.eclipse.ui,3.6.2.M20110203-1100,"org.eclipse.ui.edit.delete",1303421071859
executed,command,org.eclipse.ui,3.6.2.M20110203-1100,"org.eclipse.ui.edit.delete",1303421072046
executed,command,org.eclipse.ui,3.6.2.M20110203-1100,"org.eclipse.ui.edit.delete",1303421072375
executed,command,org.eclipse.ui.workbench.texteditor,3.6.1.r361_v20100714-0800,"org.eclipse.ui.edit.text.select.lineEnd",1303421075218
executed,command,org.eclipse.ui,3.6.2.M20110203-1100,"org.eclipse.ui.edit.delete",1303421075953
executed,command,org.eclipse.ui.workbench.texteditor,3.6.1.r361_v20100714-0800,"org.eclipse.ui.edit.text.select.lineEnd",1303421077437
executed,command,org.eclipse.ui,3.6.2.M20110203-1100,"org.eclipse.ui.edit.delete",1303421077921
executed,command,org.eclipse.ui,3.6.2.M20110203-1100,"org.eclipse.ui.edit.paste",1303421079484
executed,command,org.eclipse.ui.workbench.texteditor,3.6.1.r361_v20100714-0800,"org.eclipse.ui.edit.text.goto.lineStart",1303421081234
deactivated,workbench,org.eclipse.ui.workbench,3.6.2.M20110210-1200,"",1303421082921
activated,workbench,org.eclipse.ui.workbench,3.6.2.M20110210-1200,"",1303421087515
executed,command,org.eclipse.ui.workbench.texteditor,3.6.1.r361_v20100714-0800,"org.eclipse.ui.edit.text.select.lineEnd",1303421089250
executed,command,org.eclipse.ui,3.6.2.M20110203-1100,"org.eclipse.ui.edit.delete",1303421089906
executed,command,org.eclipse.ui,3.6.2.M20110203-1100,"org.eclipse.ui.edit.paste",1303421090843
executed,command,org.eclipse.ui.workbench.texteditor,3.6.1.r361_v20100714-0800,"org.eclipse.ui.edit.text.goto.lineStart",1303421092171
executed,command,org.eclipse.ui.workbench.texteditor,3.6.1.r361_v20100714-0800,"org.eclipse.ui.edit.text.select.lineStart",1303421093984
executed,command,org.eclipse.ui,3.6.2.M20110203-1100,"org.eclipse.ui.edit.delete",1303421103093
executed,command,org.eclipse.ui,3.6.2.M20110203-1100,"org.eclipse.ui.edit.delete",1303421103250
executed,command,org.eclipse.ui,3.6.2.M20110203-1100,"org.eclipse.ui.edit.delete",1303421103437
executed,command,org.eclipse.ui,3.6.2.M20110203-1100,"org.eclipse.ui.edit.delete",1303421103625
executed,command,org.eclipse.ui,3.6.2.M20110203-1100,"org.eclipse.ui.edit.delete",1303421103812
executed,command,org.eclipse.ui,3.6.2.M20110203-1100,"org.eclipse.ui.edit.delete",1303421104000
executed,command,org.eclipse.ui,3.6.2.M20110203-1100,"org.eclipse.ui.edit.delete",1303421104171
executed,command,org.eclipse.ui,3.6.2.M20110203-1100,"org.eclipse.ui.edit.delete",1303421104375
executed,command,org.eclipse.ui,3.6.2.M20110203-1100,"org.eclipse.ui.edit.delete",1303421104578
executed,command,org.eclipse.ui,3.6.2.M20110203-1100,"org.eclipse.ui.edit.delete",1303421104765
executed,command,org.eclipse.ui,3.6.2.M20110203-1100,"org.eclipse.ui.edit.delete",1303421104984
executed,command,org.eclipse.ui,3.6.2.M20110203-1100,"org.eclipse.ui.edit.delete",1303421105234
deactivated,workbench,org.eclipse.ui.workbench,3.6.2.M20110210-1200,"",1303421106796
activated,workbench,org.eclipse.ui.workbench,3.6.2.M20110210-1200,"",1303421112218
executed,command,org.eclipse.ui.workbench.texteditor,3.6.1.r361_v20100714-0800,"org.eclipse.ui.edit.text.goto.lineStart",1303421113921
executed,command,org.eclipse.ui.workbench.texteditor,3.6.1.r361_v20100714-0800,"org.eclipse.ui.edit.text.select.lineEnd",1303421114875
executed,command,org.eclipse.ui,3.6.2.M20110203-1100,"org.eclipse.ui.edit.delete",1303421115687
executed,command,org.eclipse.ui,3.6.2.M20110203-1100,"org.eclipse.ui.edit.paste",1303421116843
executed,command,org.eclipse.ui.workbench.texteditor,3.6.1.r361_v20100714-0800,"org.eclipse.ui.edit.text.goto.lineStart",1303421118078
executed,command,org.eclipse.ui.workbench.texteditor,3.6.1.r361_v20100714-0800,"org.eclipse.ui.edit.text.goto.lineStart",1303421118406
deactivated,workbench,org.eclipse.ui.workbench,3.6.2.M20110210-1200,"",1303421144359
activated,workbench,org.eclipse.ui.workbench,3.6.2.M20110210-1200,"",1303421151062
executed,command,org.eclipse.ui,3.6.2.M20110203-1100,"org.eclipse.ui.edit.delete",1303421158234
executed,command,org.eclipse.ui,3.6.2.M20110203-1100,"org.eclipse.ui.edit.delete",1303421158500
executed,command,org.eclipse.ui,3.6.2.M20110203-1100,"org.eclipse.ui.edit.delete",1303421158796
executed,command,org.eclipse.ui,3.6.2.M20110203-1100,"org.eclipse.ui.edit.delete",1303421159328
executed,command,org.eclipse.ui,3.6.2.M20110203-1100,"org.eclipse.ui.edit.delete",1303421162093
executed,command,org.eclipse.ui,3.6.2.M20110203-1100,"org.eclipse.ui.edit.delete",1303421162296
executed,command,org.eclipse.ui,3.6.2.M20110203-1100,"org.eclipse.ui.edit.delete",1303421162484
executed,command,org.eclipse.ui,3.6.2.M20110203-1100,"org.eclipse.ui.edit.delete",1303421162671
executed,command,org.eclipse.ui,3.6.2.M20110203-1100,"org.eclipse.ui.edit.delete",1303421163109
executed,command,org.eclipse.ui.workbench.texteditor,3.6.1.r361_v20100714-0800,"org.eclipse.ui.edit.text.select.lineStart",1303421164640
executed,command,org.eclipse.ui,3.6.2.M20110203-1100,"org.eclipse.ui.edit.delete",1303421165625
executed,command,org.eclipse.ui.workbench.texteditor,3.6.1.r361_v20100714-0800,"org.eclipse.ui.edit.text.select.lineEnd",1303421166281
executed,command,org.eclipse.ui,3.6.2.M20110203-1100,"org.eclipse.ui.edit.delete",1303421166921
executed,command,org.eclipse.ui,3.6.2.M20110203-1100,"org.eclipse.ui.edit.paste",1303421168140
executed,command,org.eclipse.ui.workbench.texteditor,3.6.1.r361_v20100714-0800,"org.eclipse.ui.edit.text.goto.lineStart",1303421169203
executed,command,org.eclipse.ui.workbench.texteditor,3.6.1.r361_v20100714-0800,"org.eclipse.ui.edit.text.goto.lineStart",1303421169515
executed,command,org.eclipse.ui,3.6.2.M20110203-1100,"org.eclipse.ui.edit.delete",1303421180390
executed,command,org.eclipse.ui,3.6.2.M20110203-1100,"org.eclipse.ui.edit.delete",1303421180781
executed,command,org.eclipse.ui,3.6.2.M20110203-1100,"org.eclipse.ui.edit.delete",1303421180796
executed,command,org.eclipse.ui,3.6.2.M20110203-1100,"org.eclipse.ui.edit.delete",1303421180828
executed,command,org.eclipse.ui,3.6.2.M20110203-1100,"org.eclipse.ui.edit.delete",1303421180859
executed,command,org.eclipse.ui,3.6.2.M20110203-1100,"org.eclipse.ui.edit.delete",1303421180875
executed,command,org.eclipse.ui,3.6.2.M20110203-1100,"org.eclipse.ui.edit.delete",1303421180906
executed,command,org.eclipse.ui,3.6.2.M20110203-1100,"org.eclipse.ui.edit.delete",1303421180937
executed,command,org.eclipse.ui,3.6.2.M20110203-1100,"org.eclipse.ui.edit.delete",1303421180968
executed,command,org.eclipse.ui,3.6.2.M20110203-1100,"org.eclipse.ui.edit.delete",1303421180984
executed,command,org.eclipse.ui,3.6.2.M20110203-1100,"org.eclipse.ui.edit.delete",1303421181015
executed,command,org.eclipse.ui,3.6.2.M20110203-1100,"org.eclipse.ui.edit.delete",1303421181343
executed,command,org.eclipse.ui,3.6.2.M20110203-1100,"org.eclipse.ui.edit.delete",1303421181562
executed,command,org.eclipse.ui,3.6.2.M20110203-1100,"org.eclipse.ui.edit.delete",1303421181765
executed,command,org.eclipse.ui,3.6.2.M20110203-1100,"org.eclipse.ui.edit.delete",1303421182015
deactivated,workbench,org.eclipse.ui.workbench,3.6.2.M20110210-1200,"",1303421185890
activated,workbench,org.eclipse.ui.workbench,3.6.2.M20110210-1200,"",1303421193953
executed,command,org.eclipse.ui,3.6.2.M20110203-1100,"org.eclipse.ui.edit.paste",1303421200562
executed,command,org.eclipse.ui.workbench.texteditor,3.6.1.r361_v20100714-0800,"org.eclipse.ui.edit.text.goto.lineStart",1303421202343
executed,command,org.eclipse.ui.workbench.texteditor,3.6.1.r361_v20100714-0800,"org.eclipse.ui.edit.text.goto.lineStart",1303421202796
executed,command,org.eclipse.wst.sse.ui,1.2.3.v201102102045,"org.eclipse.wst.sse.ui.format.document",1303421212171
deactivated,workbench,org.eclipse.ui.workbench,3.6.2.M20110210-1200,"",1303421273640
started,bundle,org.eclipse.ui.browser,3.3.1.r36_20101216,"org.eclipse.ui.browser",1303421286484
activated,workbench,org.eclipse.ui.workbench,3.6.2.M20110210-1200,"",1303421319421
executed,command,org.eclipse.wst.sse.ui,1.2.3.v201102102045,"org.eclipse.wst.sse.ui.format.document",1303421323453
deactivated,workbench,org.eclipse.ui.workbench,3.6.2.M20110210-1200,"",1303421340625
activated,workbench,org.eclipse.ui.workbench,3.6.2.M20110210-1200,"",1303421391046
deactivated,workbench,org.eclipse.ui.workbench,3.6.2.M20110210-1200,"",1303421411359
activated,workbench,org.eclipse.ui.workbench,3.6.2.M20110210-1200,"",1303421419953
deactivated,workbench,org.eclipse.ui.workbench,3.6.2.M20110210-1200,"",1303421565656
activated,workbench,org.eclipse.ui.workbench,3.6.2.M20110210-1200,"",1303421875484
executed,command,org.eclipse.ui.workbench.texteditor,3.6.1.r361_v20100714-0800,"org.eclipse.ui.edit.text.select.lineEnd",1303421929718
executed,command,org.eclipse.ui.workbench.texteditor,3.6.1.r361_v20100714-0800,"org.eclipse.ui.edit.text.select.lineEnd",1303421931171
executed,command,org.eclipse.ui,3.6.2.M20110203-1100,"org.eclipse.ui.edit.copy",1303421932765
executed,command,org.eclipse.ui,3.6.2.M20110203-1100,"org.eclipse.ui.edit.paste",1303421943625
executed,command,org.eclipse.ui,3.6.2.M20110203-1100,"org.eclipse.ui.edit.delete",1303421950828
executed,command,org.eclipse.ui,3.6.2.M20110203-1100,"org.eclipse.ui.edit.delete",1303421953953
executed,command,org.eclipse.ui,3.6.2.M20110203-1100,"org.eclipse.ui.edit.delete",1303421954328
executed,command,org.eclipse.ui,3.6.2.M20110203-1100,"org.eclipse.ui.edit.delete",1303421954562
executed,command,org.eclipse.ui,3.6.2.M20110203-1100,"org.eclipse.ui.edit.delete",1303421954781
executed,command,org.eclipse.ui,3.6.2.M20110203-1100,"org.eclipse.ui.edit.delete",1303421955031
executed,command,org.eclipse.ui,3.6.2.M20110203-1100,"org.eclipse.ui.edit.delete",1303421955406
executed,command,org.eclipse.ui,3.6.2.M20110203-1100,"org.eclipse.ui.edit.delete",1303421955437
executed,command,org.eclipse.ui,3.6.2.M20110203-1100,"org.eclipse.ui.edit.delete",1303421955468
executed,command,org.eclipse.ui,3.6.2.M20110203-1100,"org.eclipse.ui.edit.delete",1303421955890
executed,command,org.eclipse.ui,3.6.2.M20110203-1100,"org.eclipse.ui.edit.delete",1303421956187
executed,command,org.eclipse.ui,3.6.2.M20110203-1100,"org.eclipse.ui.edit.delete",1303421956484
executed,command,org.eclipse.ui,3.6.2.M20110203-1100,"org.eclipse.ui.edit.delete",1303421956781
executed,command,org.eclipse.ui,3.6.2.M20110203-1100,"org.eclipse.ui.edit.delete",1303421969437
executed,command,org.eclipse.ui,3.6.2.M20110203-1100,"org.eclipse.ui.edit.delete",1303421969671
executed,command,org.eclipse.ui,3.6.2.M20110203-1100,"org.eclipse.ui.edit.delete",1303421969968
executed,command,org.eclipse.ui,3.6.2.M20110203-1100,"org.eclipse.ui.edit.delete",1303421970390
executed,command,org.eclipse.ui.workbench.texteditor,3.6.1.r361_v20100714-0800,"org.eclipse.ui.edit.text.select.lineEnd",1303422005875
executed,command,org.eclipse.ui,3.6.2.M20110203-1100,"org.eclipse.ui.edit.copy",1303422236500
executed,command,org.eclipse.ui.workbench.texteditor,3.6.1.r361_v20100714-0800,"org.eclipse.ui.edit.text.select.lineEnd",1303422292515
executed,command,org.eclipse.ui.workbench.texteditor,3.6.1.r361_v20100714-0800,"org.eclipse.ui.edit.text.select.lineEnd",1303422293890
executed,command,org.eclipse.ui.workbench.texteditor,3.6.1.r361_v20100714-0800,"org.eclipse.ui.edit.text.select.lineEnd",1303422296171
executed,command,org.eclipse.ui,3.6.2.M20110203-1100,"org.eclipse.ui.file.save",1303422339046
activated,view,org.eclipse.jdt.ui,3.6.2.r362_v20110203,"org.eclipse.jdt.ui.PackageExplorer",1303422340093
deactivated,workbench,org.eclipse.ui.workbench,3.6.2.M20110210-1200,"",1303422345937
activated,workbench,org.eclipse.ui.workbench,3.6.2.M20110210-1200,"",1303422347750
deactivated,workbench,org.eclipse.ui.workbench,3.6.2.M20110210-1200,"",1303422347890
activated,workbench,org.eclipse.ui.workbench,3.6.2.M20110210-1200,"",1303422351218
closed,workbench,org.eclipse.ui.workbench,3.6.2.M20110210-1200,"",1303422352375
stopped,bundle,org.eclipse.jst.j2ee.xdoclet.runtime,1.1.300.v201004280700,"org.eclipse.jst.j2ee.xdoclet.runtime",1303422364531
stopped,bundle,org.eclipse.jst.j2ee.ejb.annotations.xdoclet,1.2.100.v201003112036,"org.eclipse.jst.j2ee.ejb.annotations.xdoclet",1303422364578
stopped,bundle,org.eclipse.jst.server.generic.jboss,1.6.1.v200904151730,"org.eclipse.jst.server.generic.jboss",1303422364625
stopped,bundle,org.eclipse.jst.server.generic.jonas,1.5.205.v200805140145,"org.eclipse.jst.server.generic.jonas",1303422364671
stopped,bundle,org.eclipse.jst.server.generic.oc4j,1.5.206.v20090812,"org.eclipse.jst.server.generic.oc4j",1303422364734
stopped,bundle,org.eclipse.jst.server.websphere.core,1.0.302.v20080620,"org.eclipse.jst.server.websphere.core",1303422364859
stopped,bundle,org.eclipse.jst.server.generic.ui,1.0.505.v20100428,"org.eclipse.jst.server.generic.ui",1303422364953
stopped,bundle,org.eclipse.jst.server.generic.core,1.0.606.v20100512,"org.eclipse.jst.server.generic.core",1303422365140
stopped,bundle,org.eclipse.mylyn.ide.ant,3.4.0.v20100608-0100-e3x,"org.eclipse.mylyn.ide.ant",1303422365203
stopped,bundle,org.eclipse.datatools.connectivity.oda.template.ui,3.2.1.v201004090942,"org.eclipse.datatools.connectivity.oda.template.ui",1303422365234
stopped,bundle,org.eclipse.pde.api.tools.ui,1.0.201.v20100820_r361,"org.eclipse.pde.api.tools.ui",1303422365250
stopped,bundle,org.eclipse.pde.ds.ui,1.0.100.v20100601,"org.eclipse.pde.ds.ui",1303422365265
stopped,bundle,org.eclipse.pde.runtime,3.4.200.v20100601,"org.eclipse.pde.runtime",1303422365296
stopped,bundle,org.eclipse.pde.ua.ui,1.0.100.v20100504,"org.eclipse.pde.ua.ui",1303422365359
stopped,bundle,org.eclipse.pde.ui.templates,3.4.200.v20100601,"org.eclipse.pde.ui.templates",1303422365406
stopped,bundle,org.jboss.tools.maven.cdi,1.0.0.v20110216-1827-H58-GA,"org.jboss.tools.maven.cdi",1303422365437
stopped,bundle,org.jboss.tools.cdi.core,1.1.0.v20110215-1333-H24-GA,"org.jboss.tools.cdi.core",1303422365484
stopped,bundle,org.jboss.tools.jsf.text.ext.richfaces,3.2.0.v20110215-1535-H41-GA,"org.jboss.tools.jsf.text.ext.richfaces",1303422365484
stopped,bundle,org.jboss.tools.jsf.text.ext.facelets,3.2.0.v20110215-1535-H41-GA,"org.jboss.tools.jsf.text.ext.facelets",1303422365500
stopped,bundle,org.jboss.tools.jsf.text.ext,3.2.0.v20110215-1535-H41-GA,"org.jboss.tools.jsf.text.ext",1303422365500
stopped,bundle,org.jboss.tools.jsf.ui,3.2.0.v20110215-1535-H41-GA,"org.jboss.tools.jsf.ui",1303422365500
stopped,bundle,org.jboss.tools.jsf.verification,3.1.0.v20110215-1535-H41-GA,"org.jboss.tools.jsf.verification",1303422365500
stopped,bundle,org.jboss.tools.jsf.vpe.ajax4jsf,3.1.0.v20110215-1535-H41-GA,"org.jboss.tools.jsf.vpe.ajax4jsf",1303422365500
stopped,bundle,org.jboss.tools.jsf.vpe.jbpm,1.0.0.v20110215-1535-H41-GA,"org.jboss.tools.jsf.vpe.jbpm",1303422365500
stopped,bundle,org.jboss.tools.jsf.vpe.jstl,3.1.0.v20110215-1535-H41-GA,"org.jboss.tools.jsf.vpe.jstl",1303422365500
stopped,bundle,org.jboss.tools.jsf.vpe.richfaces,3.2.0.v20110215-1535-H41-GA,"org.jboss.tools.jsf.vpe.richfaces",1303422365500
stopped,bundle,org.jboss.tools.jsf.vpe.seam,3.2.0.v20110215-1535-H41-GA,"org.jboss.tools.jsf.vpe.seam",1303422365500
stopped,bundle,org.jboss.tools.jsf.vpe.jsf,3.2.0.v20110215-1535-H41-GA,"org.jboss.tools.jsf.vpe.jsf",1303422365500
stopped,bundle,org.jboss.tools.maven.seam,1.1.0.v20110216-1827-H58-GA,"org.jboss.tools.maven.seam",1303422365531
stopped,bundle,org.jboss.tools.maven.project.examples,1.0.0.v20110216-1827-H58-GA,"org.jboss.tools.maven.project.examples",1303422365656
stopped,bundle,org.jboss.tools.project.examples.cheatsheet,1.1.0.v20110215-1231-H28-GA,"org.jboss.tools.project.examples.cheatsheet",1303422365703
stopped,bundle,org.jboss.tools.project.examples,1.2.0.v20110215-1231-H28-GA,"org.jboss.tools.project.examples",1303422365781
stopped,bundle,org.jboss.tools.seam.ui,3.2.0.v20110216-1818-H44-GA,"org.jboss.tools.seam.ui",1303422365781
stopped,bundle,org.jboss.tools.seam.core,3.2.0.v20110216-1818-H44-GA,"org.jboss.tools.seam.core",1303422365781
stopped,bundle,org.jboss.tools.jsf,3.2.0.v20110215-1535-H41-GA,"org.jboss.tools.jsf",1303422365781
stopped,bundle,org.jboss.tools.jsf.vpe.facelets,3.1.0.v20110215-1535-H41-GA,"org.jboss.tools.jsf.vpe.facelets",1303422365781
stopped,bundle,org.jboss.tools.jsf.vpe.myfaces,3.1.0.v20110215-1535-H41-GA,"org.jboss.tools.jsf.vpe.myfaces",1303422365781
stopped,bundle,org.jboss.tools.struts.vpe.struts,3.1.0.v20110215-1526-H32-GA,"org.jboss.tools.struts.vpe.struts",1303422365781
stopped,bundle,org.jboss.tools.vpe.docbook,3.1.0.v20110215-1513-H28-GA,"org.jboss.tools.vpe.docbook",1303422365781
stopped,bundle,org.jboss.tools.vpe.html,3.2.0.v20110215-1513-H28-GA,"org.jboss.tools.vpe.html",1303422365781
stopped,bundle,org.jboss.tools.vpe.jsp,3.1.0.v20110215-1513-H28-GA,"org.jboss.tools.vpe.jsp",1303422365781
stopped,bundle,org.jboss.tools.vpe.spring,3.1.0.v20110215-1513-H28-GA,"org.jboss.tools.vpe.spring",1303422365796
stopped,bundle,org.jboss.tools.vpe,3.2.0.v20110215-1513-H28-GA,"org.jboss.tools.vpe",1303422365796
stopped,bundle,org.jboss.tools.jst.css,3.2.0.v20110215-1251-H28-GA,"org.jboss.tools.jst.css",1303422365828
stopped,bundle,org.jboss.tools.jst.web.tiles.ui,3.2.0.v20110215-1251-H28-GA,"org.jboss.tools.jst.web.tiles.ui",1303422366000
stopped,bundle,org.jboss.tools.struts.validator.ui,3.1.0.v20110215-1526-H32-GA,"org.jboss.tools.struts.validator.ui",1303422366031
stopped,bundle,org.jboss.tools.struts.ui,3.1.0.v20110215-1526-H32-GA,"org.jboss.tools.struts.ui",1303422366031
stopped,bundle,org.jboss.tools.jst.web.ui,3.2.0.v20110215-1251-H28-GA,"org.jboss.tools.jst.web.ui",1303422366031
stopped,bundle,org.jboss.tools.vpe.ui.palette,3.2.0.v20110215-1513-H28-GA,"org.jboss.tools.vpe.ui.palette",1303422366031
stopped,bundle,org.jboss.tools.jst.jsp,3.2.0.v20110215-1251-H28-GA,"org.jboss.tools.jst.jsp",1303422366046
stopped,bundle,org.jboss.tools.struts.text.ext,3.1.0.v20110215-1526-H32-GA,"org.jboss.tools.struts.text.ext",1303422366046
stopped,bundle,org.jboss.tools.jst.text.ext,3.2.0.v20110215-1251-H28-GA,"org.jboss.tools.jst.text.ext",1303422366046
stopped,bundle,org.jboss.tools.jst.web.kb,3.2.0.v20110215-1251-H28-GA,"org.jboss.tools.jst.web.kb",1303422366046
stopped,bundle,org.jboss.tools.common.el.ui,3.2.0.v20110215-1235-H25-GA,"org.jboss.tools.common.el.ui",1303422366062
stopped,bundle,org.jboss.tools.vpe.resref,3.2.0.v20110215-1513-H28-GA,"org.jboss.tools.vpe.resref",1303422366062
stopped,bundle,org.jboss.tools.common.resref.ui,3.2.0.v20110215-1235-H25-GA,"org.jboss.tools.common.resref.ui",1303422366109
stopped,bundle,org.jboss.tools.common.verification.ui,3.1.0.v20110215-1235-H25-GA,"org.jboss.tools.common.verification.ui",1303422366109
stopped,bundle,org.jboss.tools.hibernate.xml.ui,3.4.0.v20110215-1252-H31-GA,"org.jboss.tools.hibernate.xml.ui",1303422366156
stopped,bundle,org.jboss.tools.common.model.ui,3.2.0.v20110215-1235-H25-GA,"org.jboss.tools.common.model.ui",1303422366156
stopped,bundle,org.jboss.tools.common.text.ext,3.2.0.v20110215-1235-H25-GA,"org.jboss.tools.common.text.ext",1303422366156
stopped,bundle,org.eclipse.pde.ui,3.6.1.v20110210_r362,"org.eclipse.pde.ui",1303422366156
stopped,bundle,org.hibernate.eclipse.jdt.apt.ui,3.4.0.v20110215-1252-H31-GA,"org.hibernate.eclipse.jdt.apt.ui",1303422366187
stopped,bundle,org.hibernate.eclipse.jdt.ui,3.4.0.v20110215-1252-H31-GA,"org.hibernate.eclipse.jdt.ui",1303422366187
stopped,bundle,org.hibernate.eclipse.mapper,3.4.0.v20110215-1252-H31-GA,"org.hibernate.eclipse.mapper",1303422366187
stopped,bundle,org.jboss.tools.hibernate.jpt.ui,3.4.0.v20110215-1252-H31-GA,"org.jboss.tools.hibernate.jpt.ui",1303422366234
stopped,bundle,org.jboss.tools.hibernate.jpt.core,3.4.0.v20110215-1252-H31-GA,"org.jboss.tools.hibernate.jpt.core",1303422366281
stopped,bundle,org.jboss.tools.hibernate.ui,3.4.0.v20110215-1252-H31-GA,"org.jboss.tools.hibernate.ui",1303422366296
stopped,bundle,org.jboss.tools.maven.hibernate,1.0.0.v20110216-1827-H58-GA,"org.jboss.tools.maven.hibernate",1303422366328
stopped,bundle,org.hibernate.eclipse.console,3.4.0.v20110215-1252-H31-GA,"org.hibernate.eclipse.console",1303422366328
stopped,bundle,org.jboss.tools.common.el.core,3.2.0.v20110215-1235-H25-GA,"org.jboss.tools.common.el.core",1303422366328
stopped,bundle,org.jboss.tools.common.resref.core,3.1.0.v20110215-1235-H25-GA,"org.jboss.tools.common.resref.core",1303422366328
stopped,bundle,org.jboss.tools.struts.verification,3.1.0.v20110215-1526-H32-GA,"org.jboss.tools.struts.verification",1303422366328
stopped,bundle,org.jboss.tools.jst.web.verification,3.1.0.v20110215-1251-H28-GA,"org.jboss.tools.jst.web.verification",1303422366328
stopped,bundle,org.jboss.tools.common.verification,3.2.0.v20110215-1235-H25-GA,"org.jboss.tools.common.verification",1303422366328
stopped,bundle,org.jboss.tools.hibernate.xml,3.4.0.v20110215-1252-H31-GA,"org.jboss.tools.hibernate.xml",1303422366328
stopped,bundle,org.jboss.tools.struts,3.2.0.v20110215-1526-H32-GA,"org.jboss.tools.struts",1303422366328
stopped,bundle,org.jboss.tools.jst.web.tiles,3.1.0.v20110215-1251-H28-GA,"org.jboss.tools.jst.web.tiles",1303422366328
stopped,bundle,org.jboss.tools.seam.pages.xml,3.1.0.v20110216-1818-H44-GA,"org.jboss.tools.seam.pages.xml",1303422366328
stopped,bundle,org.jboss.tools.seam.xml,3.2.0.v20110216-1818-H44-GA,"org.jboss.tools.seam.xml",1303422366328
stopped,bundle,org.jboss.tools.jst.web,3.2.0.v20110215-1251-H28-GA,"org.jboss.tools.jst.web",1303422366328
stopped,bundle,org.jboss.tools.maven.jsf,1.0.0.v20110216-1827-H58-GA,"org.jboss.tools.maven.jsf",1303422366359
stopped,bundle,org.jboss.tools.maven.portlet,1.0.0.v20110216-1827-H58-GA,"org.jboss.tools.maven.portlet",1303422366390
stopped,bundle,org.jboss.tools.common.model,3.2.0.v20110215-1235-H25-GA,"org.jboss.tools.common.model",1303422366390
stopped,bundle,org.eclipse.ant.ui,3.5.0.v20100427,"org.eclipse.ant.ui",1303422366390
