what,kind,bundleId,bundleVersion,description,time
deactivated,workbench,org.eclipse.ui.workbench,3.6.2.M20110210-1200,"",1303245110859
executed,command,org.eclipse.ui,3.6.2.M20110203-1100,"org.eclipse.ui.edit.findReplace",1303245111234
activated,workbench,org.eclipse.ui.workbench,3.6.2.M20110210-1200,"",1303245123609
executed,command,org.eclipse.ui,3.6.2.M20110203-1100,"org.eclipse.ui.edit.undo",1303245127984
executed,command,org.eclipse.ui,3.6.2.M20110203-1100,"org.eclipse.ui.edit.undo",1303245128843
executed,command,org.eclipse.ui,3.6.2.M20110203-1100,"org.eclipse.ui.edit.undo",1303245130406
executed,command,org.eclipse.ui,3.6.2.M20110203-1100,"org.eclipse.ui.file.save",1303245137609
deactivated,workbench,org.eclipse.ui.workbench,3.6.2.M20110210-1200,"",1303245140078
activated,workbench,org.eclipse.ui.workbench,3.6.2.M20110210-1200,"",1303245141078
executed,command,org.eclipse.ui.ide,3.6.2.M20101201-0800,"org.eclipse.ui.project.cleanAction",1303245141109
deactivated,workbench,org.eclipse.ui.workbench,3.6.2.M20110210-1200,"",1303245141718
error,log,,,"Project facet jbt.bpel.facet.core has not been defined. It is used in plugin org.jboss.ide.eclipse.as.core.",1303245143796
started,bundle,org.jboss.tools.portlet.core,1.2.0.v20110215-1232-H24-GA,"org.jboss.tools.portlet.core",1303245143921
started,bundle,org.eclipse.wst.wsi.ui,1.0.501.v201004201506,"org.eclipse.wst.wsi.ui",1303245144140
activated,workbench,org.eclipse.ui.workbench,3.6.2.M20110210-1200,"",1303245504468
started,bundle,org.eclipse.ui.navigator,3.5.0.I20100601-0800,"org.eclipse.ui.navigator",1303245506828
opened,view,org.jboss.tools.seam.ui,3.2.0.v20110216-1818-H44-GA,"org.jboss.tools.seam.ui.views.SeamComponentsNavigator",1303245507140
activated,view,org.jboss.tools.seam.ui,3.2.0.v20110216-1818-H44-GA,"org.jboss.tools.seam.ui.views.SeamComponentsNavigator",1303245507218
started,bundle,org.eclipse.ui.navigator.resources,3.4.202.M20101124-0800,"org.eclipse.ui.navigator.resources",1303245507359
activated,editor,org.jboss.tools.common.model.ui,3.2.0.v20110215-1235-H25-GA,"org.jboss.tools.common.model.ui.editor.EditorPartWrapper",1303245507484
executed,command,org.eclipse.ui.ide,3.6.2.M20101201-0800,"org.eclipse.ui.project.buildAll",1303245508281
started,bundle,org.eclipse.ui.externaltools,3.2.0.v20100427,"org.eclipse.ui.externaltools",1303245512359
activated,view,org.eclipse.jdt.ui,3.6.2.r362_v20110203,"org.eclipse.jdt.ui.PackageExplorer",1303245516421
started,bundle,org.eclipse.pde.core,3.6.2.v20110210_r362,"org.eclipse.pde.core",1303245522359
started,bundle,org.eclipse.ant.ui,3.5.0.v20100427,"org.eclipse.ant.ui",1303245531609
started,bundle,org.eclipse.jdt.debug,3.6.1.v20100715_r361,"org.eclipse.jdt.debug",1303245531859
started,bundle,org.eclipse.jdt.debug.ui,3.5.2.v20100928a_r362,"org.eclipse.jdt.debug.ui",1303245532203
started,bundle,org.eclipse.ant.launching,1.0.1.v20101020_r362,"org.eclipse.ant.launching",1303245532296
executed,command,org.eclipse.ant.ui,3.5.0.v20100427,"org.eclipse.ant.ui.antShortcut.run",1303245532421
started,bundle,org.eclipse.core.externaltools,1.0.1.v20100831_r361,"org.eclipse.core.externaltools",1303245532562
started,bundle,org.eclipse.ant.core,3.2.201.v20110203_r362,"org.eclipse.ant.core",1303245532906
started,bundle,org.eclipse.pde.build,3.6.2.R36x_20110203,"org.eclipse.pde.build",1303245533375
opened,view,org.eclipse.ui.console,3.5.0.v20100526,"org.eclipse.ui.console.ConsoleView",1303245536781
activated,editor,org.jboss.tools.common.model.ui,3.2.0.v20110215-1235-H25-GA,"org.jboss.tools.common.model.ui.editor.EditorPartWrapper",1303245541218
opened,view,org.eclipse.wst.server.ui,1.1.207.v20110119,"org.eclipse.wst.server.ui.ServersView",1303245544781
activated,view,org.eclipse.wst.server.ui,1.1.207.v20110119,"org.eclipse.wst.server.ui.ServersView",1303245544906
started,bundle,org.eclipse.ui.views.properties.tabbed,3.5.100.I20100509-0800,"org.eclipse.ui.views.properties.tabbed",1303245544968
activated,editor,org.jboss.tools.common.model.ui,3.2.0.v20110215-1235-H25-GA,"org.jboss.tools.common.model.ui.editor.EditorPartWrapper",1303245547437
activated,view,org.eclipse.jdt.ui,3.6.2.r362_v20110203,"org.eclipse.jdt.ui.PackageExplorer",1303245731250
executed,command,org.eclipse.ui,3.6.2.M20110203-1100,"org.eclipse.ui.file.refresh",1303245732765
deactivated,workbench,org.eclipse.ui.workbench,3.6.2.M20110210-1200,"",1303245733046
activated,workbench,org.eclipse.ui.workbench,3.6.2.M20110210-1200,"",1303245733203
activated,view,org.eclipse.wst.server.ui,1.1.207.v20110119,"org.eclipse.wst.server.ui.ServersView",1303245748734
executed,command,org.eclipse.wst.server.ui,1.1.207.v20110119,"org.eclipse.wst.server.run",1303245749718
started,bundle,org.eclipse.jst.server.tomcat.ui,1.1.200.v20100418,"org.eclipse.jst.server.tomcat.ui",1303245749890
started,bundle,org.maven.ide.eclipse.launching,0.12.1.20110112-1712,"org.maven.ide.eclipse.launching",1303245751546
activated,view,org.eclipse.ui.console,3.5.0.v20100526,"org.eclipse.ui.console.ConsoleView",1303245753328
activated,view,org.eclipse.wst.server.ui,1.1.207.v20110119,"org.eclipse.wst.server.ui.ServersView",1303245760515
activated,editor,org.jboss.tools.common.model.ui,3.2.0.v20110215-1235-H25-GA,"org.jboss.tools.common.model.ui.editor.EditorPartWrapper",1303245764171
deactivated,workbench,org.eclipse.ui.workbench,3.6.2.M20110210-1200,"",1303245910828
activated,workbench,org.eclipse.ui.workbench,3.6.2.M20110210-1200,"",1303245942750
deactivated,workbench,org.eclipse.ui.workbench,3.6.2.M20110210-1200,"",1303245944375
activated,workbench,org.eclipse.ui.workbench,3.6.2.M20110210-1200,"",1303245944390
deactivated,workbench,org.eclipse.ui.workbench,3.6.2.M20110210-1200,"",1303245944531
activated,workbench,org.eclipse.ui.workbench,3.6.2.M20110210-1200,"",1303245964343
activated,editor,org.jboss.tools.jst.jsp,3.2.0.v20110215-1251-H28-GA,"org.jboss.tools.jst.jsp.jspeditor.JSPTextEditor",1303245967562
deactivated,workbench,org.eclipse.ui.workbench,3.6.2.M20110210-1200,"",1303245973062
activated,workbench,org.eclipse.ui.workbench,3.6.2.M20110210-1200,"",1303245974765
executed,command,org.eclipse.ui,3.6.2.M20110203-1100,"org.eclipse.ui.file.save",1303245987375
deactivated,workbench,org.eclipse.ui.workbench,3.6.2.M20110210-1200,"",1303245988765
activated,workbench,org.eclipse.ui.workbench,3.6.2.M20110210-1200,"",1303245994093
executed,command,org.eclipse.ui,3.6.2.M20110203-1100,"org.eclipse.ui.file.save",1303245998265
deactivated,workbench,org.eclipse.ui.workbench,3.6.2.M20110210-1200,"",1303245998968
activated,workbench,org.eclipse.ui.workbench,3.6.2.M20110210-1200,"",1303245998968
deactivated,workbench,org.eclipse.ui.workbench,3.6.2.M20110210-1200,"",1303245999093
activated,workbench,org.eclipse.ui.workbench,3.6.2.M20110210-1200,"",1303246002171
deactivated,workbench,org.eclipse.ui.workbench,3.6.2.M20110210-1200,"",1303246005796
activated,workbench,org.eclipse.ui.workbench,3.6.2.M20110210-1200,"",1303246024609
deactivated,workbench,org.eclipse.ui.workbench,3.6.2.M20110210-1200,"",1303246026359
activated,workbench,org.eclipse.ui.workbench,3.6.2.M20110210-1200,"",1303246027593
closed,workbench,org.eclipse.ui.workbench,3.6.2.M20110210-1200,"",1303246028515
stopped,bundle,org.eclipse.jst.j2ee.xdoclet.runtime,1.1.300.v201004280700,"org.eclipse.jst.j2ee.xdoclet.runtime",1303246044437
stopped,bundle,org.eclipse.jst.j2ee.ejb.annotations.xdoclet,1.2.100.v201003112036,"org.eclipse.jst.j2ee.ejb.annotations.xdoclet",1303246044468
stopped,bundle,org.eclipse.jst.server.generic.jboss,1.6.1.v200904151730,"org.eclipse.jst.server.generic.jboss",1303246044531
stopped,bundle,org.eclipse.jst.server.generic.jonas,1.5.205.v200805140145,"org.eclipse.jst.server.generic.jonas",1303246044718
stopped,bundle,org.eclipse.jst.server.generic.oc4j,1.5.206.v20090812,"org.eclipse.jst.server.generic.oc4j",1303246044859
stopped,bundle,org.eclipse.jst.server.websphere.core,1.0.302.v20080620,"org.eclipse.jst.server.websphere.core",1303246044906
stopped,bundle,org.eclipse.jst.server.generic.ui,1.0.505.v20100428,"org.eclipse.jst.server.generic.ui",1303246044937
stopped,bundle,org.eclipse.jst.server.generic.core,1.0.606.v20100512,"org.eclipse.jst.server.generic.core",1303246044953
stopped,bundle,org.eclipse.mylyn.ide.ant,3.4.0.v20100608-0100-e3x,"org.eclipse.mylyn.ide.ant",1303246045000
stopped,bundle,org.eclipse.datatools.connectivity.oda.template.ui,3.2.1.v201004090942,"org.eclipse.datatools.connectivity.oda.template.ui",1303246045046
stopped,bundle,org.eclipse.pde.api.tools.ui,1.0.201.v20100820_r361,"org.eclipse.pde.api.tools.ui",1303246045093
stopped,bundle,org.eclipse.pde.ds.ui,1.0.100.v20100601,"org.eclipse.pde.ds.ui",1303246045187
stopped,bundle,org.eclipse.pde.runtime,3.4.200.v20100601,"org.eclipse.pde.runtime",1303246045218
stopped,bundle,org.eclipse.pde.ua.ui,1.0.100.v20100504,"org.eclipse.pde.ua.ui",1303246045296
stopped,bundle,org.eclipse.pde.ui.templates,3.4.200.v20100601,"org.eclipse.pde.ui.templates",1303246045359
stopped,bundle,org.jboss.tools.maven.cdi,1.0.0.v20110216-1827-H58-GA,"org.jboss.tools.maven.cdi",1303246045390
stopped,bundle,org.jboss.tools.cdi.core,1.1.0.v20110215-1333-H24-GA,"org.jboss.tools.cdi.core",1303246045406
stopped,bundle,org.jboss.tools.jsf.text.ext.richfaces,3.2.0.v20110215-1535-H41-GA,"org.jboss.tools.jsf.text.ext.richfaces",1303246045406
stopped,bundle,org.jboss.tools.jsf.text.ext.facelets,3.2.0.v20110215-1535-H41-GA,"org.jboss.tools.jsf.text.ext.facelets",1303246045421
stopped,bundle,org.jboss.tools.jsf.text.ext,3.2.0.v20110215-1535-H41-GA,"org.jboss.tools.jsf.text.ext",1303246045421
stopped,bundle,org.jboss.tools.jsf.ui,3.2.0.v20110215-1535-H41-GA,"org.jboss.tools.jsf.ui",1303246045421
stopped,bundle,org.jboss.tools.jsf.verification,3.1.0.v20110215-1535-H41-GA,"org.jboss.tools.jsf.verification",1303246045421
stopped,bundle,org.jboss.tools.jsf.vpe.ajax4jsf,3.1.0.v20110215-1535-H41-GA,"org.jboss.tools.jsf.vpe.ajax4jsf",1303246045421
stopped,bundle,org.jboss.tools.jsf.vpe.jbpm,1.0.0.v20110215-1535-H41-GA,"org.jboss.tools.jsf.vpe.jbpm",1303246045421
stopped,bundle,org.jboss.tools.jsf.vpe.jstl,3.1.0.v20110215-1535-H41-GA,"org.jboss.tools.jsf.vpe.jstl",1303246045421
stopped,bundle,org.jboss.tools.jsf.vpe.richfaces,3.2.0.v20110215-1535-H41-GA,"org.jboss.tools.jsf.vpe.richfaces",1303246045421
stopped,bundle,org.jboss.tools.jsf.vpe.seam,3.2.0.v20110215-1535-H41-GA,"org.jboss.tools.jsf.vpe.seam",1303246045421
stopped,bundle,org.jboss.tools.jsf.vpe.jsf,3.2.0.v20110215-1535-H41-GA,"org.jboss.tools.jsf.vpe.jsf",1303246045421
stopped,bundle,org.jboss.tools.maven.seam,1.1.0.v20110216-1827-H58-GA,"org.jboss.tools.maven.seam",1303246045468
stopped,bundle,org.jboss.tools.maven.project.examples,1.0.0.v20110216-1827-H58-GA,"org.jboss.tools.maven.project.examples",1303246045468
stopped,bundle,org.jboss.tools.project.examples.cheatsheet,1.1.0.v20110215-1231-H28-GA,"org.jboss.tools.project.examples.cheatsheet",1303246045484
stopped,bundle,org.jboss.tools.project.examples,1.2.0.v20110215-1231-H28-GA,"org.jboss.tools.project.examples",1303246045531
stopped,bundle,org.jboss.tools.seam.ui,3.2.0.v20110216-1818-H44-GA,"org.jboss.tools.seam.ui",1303246045531
stopped,bundle,org.jboss.tools.seam.core,3.2.0.v20110216-1818-H44-GA,"org.jboss.tools.seam.core",1303246045531
stopped,bundle,org.jboss.tools.jsf,3.2.0.v20110215-1535-H41-GA,"org.jboss.tools.jsf",1303246045531
stopped,bundle,org.jboss.tools.jsf.vpe.facelets,3.1.0.v20110215-1535-H41-GA,"org.jboss.tools.jsf.vpe.facelets",1303246045531
stopped,bundle,org.jboss.tools.jsf.vpe.myfaces,3.1.0.v20110215-1535-H41-GA,"org.jboss.tools.jsf.vpe.myfaces",1303246045531
stopped,bundle,org.jboss.tools.struts.vpe.struts,3.1.0.v20110215-1526-H32-GA,"org.jboss.tools.struts.vpe.struts",1303246045531
stopped,bundle,org.jboss.tools.vpe.docbook,3.1.0.v20110215-1513-H28-GA,"org.jboss.tools.vpe.docbook",1303246045531
stopped,bundle,org.jboss.tools.vpe.html,3.2.0.v20110215-1513-H28-GA,"org.jboss.tools.vpe.html",1303246045531
stopped,bundle,org.jboss.tools.vpe.jsp,3.1.0.v20110215-1513-H28-GA,"org.jboss.tools.vpe.jsp",1303246045546
stopped,bundle,org.jboss.tools.vpe.spring,3.1.0.v20110215-1513-H28-GA,"org.jboss.tools.vpe.spring",1303246045546
stopped,bundle,org.jboss.tools.vpe,3.2.0.v20110215-1513-H28-GA,"org.jboss.tools.vpe",1303246045546
stopped,bundle,org.jboss.tools.jst.css,3.2.0.v20110215-1251-H28-GA,"org.jboss.tools.jst.css",1303246045593
stopped,bundle,org.jboss.tools.jst.web.tiles.ui,3.2.0.v20110215-1251-H28-GA,"org.jboss.tools.jst.web.tiles.ui",1303246045593
stopped,bundle,org.jboss.tools.struts.validator.ui,3.1.0.v20110215-1526-H32-GA,"org.jboss.tools.struts.validator.ui",1303246045593
stopped,bundle,org.jboss.tools.struts.ui,3.1.0.v20110215-1526-H32-GA,"org.jboss.tools.struts.ui",1303246045593
stopped,bundle,org.jboss.tools.jst.web.ui,3.2.0.v20110215-1251-H28-GA,"org.jboss.tools.jst.web.ui",1303246045593
stopped,bundle,org.jboss.tools.vpe.ui.palette,3.2.0.v20110215-1513-H28-GA,"org.jboss.tools.vpe.ui.palette",1303246045593
stopped,bundle,org.jboss.tools.jst.jsp,3.2.0.v20110215-1251-H28-GA,"org.jboss.tools.jst.jsp",1303246045593
stopped,bundle,org.jboss.tools.struts.text.ext,3.1.0.v20110215-1526-H32-GA,"org.jboss.tools.struts.text.ext",1303246045593
stopped,bundle,org.jboss.tools.jst.text.ext,3.2.0.v20110215-1251-H28-GA,"org.jboss.tools.jst.text.ext",1303246045593
stopped,bundle,org.jboss.tools.jst.web.kb,3.2.0.v20110215-1251-H28-GA,"org.jboss.tools.jst.web.kb",1303246045593
stopped,bundle,org.jboss.tools.common.el.ui,3.2.0.v20110215-1235-H25-GA,"org.jboss.tools.common.el.ui",1303246045796
stopped,bundle,org.jboss.tools.vpe.resref,3.2.0.v20110215-1513-H28-GA,"org.jboss.tools.vpe.resref",1303246045796
stopped,bundle,org.jboss.tools.common.resref.ui,3.2.0.v20110215-1235-H25-GA,"org.jboss.tools.common.resref.ui",1303246045812
stopped,bundle,org.jboss.tools.common.verification.ui,3.1.0.v20110215-1235-H25-GA,"org.jboss.tools.common.verification.ui",1303246045812
stopped,bundle,org.jboss.tools.hibernate.xml.ui,3.4.0.v20110215-1252-H31-GA,"org.jboss.tools.hibernate.xml.ui",1303246045859
stopped,bundle,org.jboss.tools.common.model.ui,3.2.0.v20110215-1235-H25-GA,"org.jboss.tools.common.model.ui",1303246045859
stopped,bundle,org.jboss.tools.common.text.ext,3.2.0.v20110215-1235-H25-GA,"org.jboss.tools.common.text.ext",1303246045859
stopped,bundle,org.eclipse.pde.ui,3.6.1.v20110210_r362,"org.eclipse.pde.ui",1303246045859
stopped,bundle,org.hibernate.eclipse.jdt.apt.ui,3.4.0.v20110215-1252-H31-GA,"org.hibernate.eclipse.jdt.apt.ui",1303246045890
stopped,bundle,org.hibernate.eclipse.jdt.ui,3.4.0.v20110215-1252-H31-GA,"org.hibernate.eclipse.jdt.ui",1303246045890
stopped,bundle,org.hibernate.eclipse.mapper,3.4.0.v20110215-1252-H31-GA,"org.hibernate.eclipse.mapper",1303246045890
stopped,bundle,org.jboss.tools.hibernate.jpt.ui,3.4.0.v20110215-1252-H31-GA,"org.jboss.tools.hibernate.jpt.ui",1303246045921
stopped,bundle,org.jboss.tools.hibernate.jpt.core,3.4.0.v20110215-1252-H31-GA,"org.jboss.tools.hibernate.jpt.core",1303246045968
stopped,bundle,org.jboss.tools.hibernate.ui,3.4.0.v20110215-1252-H31-GA,"org.jboss.tools.hibernate.ui",1303246045984
stopped,bundle,org.jboss.tools.maven.hibernate,1.0.0.v20110216-1827-H58-GA,"org.jboss.tools.maven.hibernate",1303246046015
stopped,bundle,org.hibernate.eclipse.console,3.4.0.v20110215-1252-H31-GA,"org.hibernate.eclipse.console",1303246046015
stopped,bundle,org.jboss.tools.common.el.core,3.2.0.v20110215-1235-H25-GA,"org.jboss.tools.common.el.core",1303246046015
stopped,bundle,org.jboss.tools.common.resref.core,3.1.0.v20110215-1235-H25-GA,"org.jboss.tools.common.resref.core",1303246046015
stopped,bundle,org.jboss.tools.struts.verification,3.1.0.v20110215-1526-H32-GA,"org.jboss.tools.struts.verification",1303246046015
stopped,bundle,org.jboss.tools.jst.web.verification,3.1.0.v20110215-1251-H28-GA,"org.jboss.tools.jst.web.verification",1303246046015
stopped,bundle,org.jboss.tools.common.verification,3.2.0.v20110215-1235-H25-GA,"org.jboss.tools.common.verification",1303246046015
stopped,bundle,org.jboss.tools.hibernate.xml,3.4.0.v20110215-1252-H31-GA,"org.jboss.tools.hibernate.xml",1303246046015
stopped,bundle,org.jboss.tools.struts,3.2.0.v20110215-1526-H32-GA,"org.jboss.tools.struts",1303246046015
stopped,bundle,org.jboss.tools.jst.web.tiles,3.1.0.v20110215-1251-H28-GA,"org.jboss.tools.jst.web.tiles",1303246046015
stopped,bundle,org.jboss.tools.seam.pages.xml,3.1.0.v20110216-1818-H44-GA,"org.jboss.tools.seam.pages.xml",1303246046015
stopped,bundle,org.jboss.tools.seam.xml,3.2.0.v20110216-1818-H44-GA,"org.jboss.tools.seam.xml",1303246046015
stopped,bundle,org.jboss.tools.jst.web,3.2.0.v20110215-1251-H28-GA,"org.jboss.tools.jst.web",1303246046015
stopped,bundle,org.jboss.tools.maven.jsf,1.0.0.v20110216-1827-H58-GA,"org.jboss.tools.maven.jsf",1303246046046
stopped,bundle,org.jboss.tools.maven.portlet,1.0.0.v20110216-1827-H58-GA,"org.jboss.tools.maven.portlet",1303246046078
stopped,bundle,org.jboss.tools.common.model,3.2.0.v20110215-1235-H25-GA,"org.jboss.tools.common.model",1303246046078
stopped,bundle,org.eclipse.ant.ui,3.5.0.v20100427,"org.eclipse.ant.ui",1303246046078
stopped,bundle,org.eclipse.ant.launching,1.0.1.v20101020_r362,"org.eclipse.ant.launching",1303246046078
stopped,bundle,org.eclipse.compare.win32,1.0.101.R36x_v20101103-0618,"org.eclipse.compare.win32",1303246046125
stopped,bundle,org.eclipse.equinox.p2.ui.sdk,1.0.100.v20100513,"org.eclipse.equinox.p2.ui.sdk",1303246046171
stopped,bundle,org.eclipse.jst.server.tomcat.ui,1.1.200.v20100418,"org.eclipse.jst.server.tomcat.ui",1303246046171
stopped,bundle,org.eclipse.jst.server.ui,1.1.101.v20100823b,"org.eclipse.jst.server.ui",1303246046171
stopped,bundle,org.eclipse.mylyn.java.tasks,3.4.0.v20100608-0100-e3x,"org.eclipse.mylyn.java.tasks",1303246046171
stopped,bundle,org.eclipse.mylyn.java.ui,3.4.0.v20100608-0100-e3x,"org.eclipse.mylyn.java.ui",1303246046218
stopped,bundle,org.maven.ide.eclipse.launching,0.12.1.20110112-1712,"org.maven.ide.eclipse.launching",1303246046218
stopped,bundle,org.eclipse.jdt.junit,3.6.1.r361_v20100825-0800,"org.eclipse.jdt.junit",1303246046218
stopped,bundle,org.eclipse.jpt.eclipselink.ui,1.3.0.v201004280001,"org.eclipse.jpt.eclipselink.ui",1303246046296
stopped,bundle,org.eclipse.jpt.eclipselink.core,1.3.2.v201102072310,"org.eclipse.jpt.eclipselink.core",1303246046312
stopped,bundle,org.eclipse.jpt.jaxb.ui,1.0.1.v201006300000,"org.eclipse.jpt.jaxb.ui",1303246046343
stopped,bundle,org.eclipse.jpt.ui,2.3.2.v201008252310,"org.eclipse.jpt.ui",1303246046359
stopped,bundle,org.eclipse.jpt.core,2.3.3.v201102172310,"org.eclipse.jpt.core",1303246046359
stopped,bundle,org.eclipse.jpt.db,1.2.202.v201010192330,"org.eclipse.jpt.db",1303246046406
stopped,bundle,org.eclipse.datatools.enablement.jdt.classpath,1.0.1.v201004070709,"org.eclipse.datatools.enablement.jdt.classpath",1303246046453
stopped,bundle,org.eclipse.jdt.apt.ui,3.3.300.v20100513-0845,"org.eclipse.jdt.apt.ui",1303246046500
stopped,bundle,org.eclipse.datatools.enablement.sybase.asa.schemaobjecteditor.examples,2.5.0.200810071,"org.eclipse.datatools.enablement.sybase.asa.schemaobjecteditor.examples",1303246046609
stopped,bundle,org.eclipse.datatools.sqltools.debugger.core.ui,1.0.0.v201003161000,"org.eclipse.datatools.sqltools.debugger.core.ui",1303246046656
activated,perspective,org.jboss.tools.jst.web.ui,,"org.jboss.tools.jst.web.ui.WebDevelopmentPerspective",1303308200078
started,bundle,org.eclipse.osgi,3.6.2.R36x_v20110210,"org.eclipse.osgi",1303308200093
started,bundle,org.eclipse.equinox.simpleconfigurator,1.0.200.v20100503,"org.eclipse.equinox.simpleconfigurator",1303308200093
started,bundle,com.ibm.icu,4.2.1.v20100412,"com.ibm.icu",1303308200156
started,bundle,org.eclipse.compare,3.5.101.R36x_v20100929-0800,"org.eclipse.compare",1303308200328
started,bundle,org.eclipse.compare.core,3.5.101.R36x_v20100929-0800,"org.eclipse.compare.core",1303308200375
started,bundle,org.eclipse.core.contenttype,3.4.100.v20100505-1235,"org.eclipse.core.contenttype",1303308200375
started,bundle,org.eclipse.core.databinding.observable,1.3.0.I20100601-0800,"org.eclipse.core.databinding.observable",1303308200437
started,bundle,org.eclipse.core.expressions,3.4.200.v20100505,"org.eclipse.core.expressions",1303308200437
started,bundle,org.eclipse.core.filebuffers,3.5.100.v20100520-0800,"org.eclipse.core.filebuffers",1303308200437
started,bundle,org.eclipse.core.filesystem,1.3.1.R36x_v20100727-0745,"org.eclipse.core.filesystem",1303308200484
started,bundle,org.eclipse.core.jobs,3.5.1.R36x_v20100824,"org.eclipse.core.jobs",1303308200484
started,bundle,org.eclipse.core.net,1.2.100.I20100511-0800,"org.eclipse.core.net",1303308200546
started,bundle,org.eclipse.core.resources,3.6.1.R36x_v20110131-1630,"org.eclipse.core.resources",1303308200765
started,bundle,org.eclipse.core.runtime,3.6.0.v20100505,"org.eclipse.core.runtime",1303308200765
started,bundle,org.eclipse.core.runtime.compatibility,3.2.100.v20100505,"org.eclipse.core.runtime.compatibility",1303308200812
started,bundle,org.eclipse.core.runtime.compatibility.auth,3.2.200.v20100517,"org.eclipse.core.runtime.compatibility.auth",1303308200828
started,bundle,org.eclipse.debug.core,3.6.0.v20100519,"org.eclipse.debug.core",1303308200921
started,bundle,org.eclipse.debug.ui,3.6.3.v20101201_r362,"org.eclipse.debug.ui",1303308201015
started,bundle,org.eclipse.draw2d,3.6.2.v20110128-0100,"org.eclipse.draw2d",1303308201046
started,bundle,org.eclipse.emf.common,2.6.0.v20100914-1218,"org.eclipse.emf.common",1303308201109
started,bundle,org.eclipse.emf.ecore,2.6.1.v20100914-1218,"org.eclipse.emf.ecore",1303308201187
started,bundle,org.eclipse.emf.ecore.xmi,2.5.0.v20100521-1846,"org.eclipse.emf.ecore.xmi",1303308201203
started,bundle,org.eclipse.epp.usagedata.gathering,1.3.1.R201102081640,"org.eclipse.epp.usagedata.gathering",1303308201234
started,bundle,org.eclipse.epp.usagedata.recording,1.3.1.R201102081640,"org.eclipse.epp.usagedata.recording",1303308201296
started,bundle,org.eclipse.equinox.app,1.3.1.R36x_v20100803,"org.eclipse.equinox.app",1303308201296
started,bundle,org.eclipse.equinox.common,3.6.0.v20100503,"org.eclipse.equinox.common",1303308201296
started,bundle,org.eclipse.equinox.ds,1.2.1.R36x_v20100803,"org.eclipse.equinox.ds",1303308201312
started,bundle,org.eclipse.equinox.event,1.2.0.v20100503,"org.eclipse.equinox.event",1303308201312
started,bundle,org.eclipse.equinox.p2.core,2.0.3.R36x_v20110111,"org.eclipse.equinox.p2.core",1303308201312
started,bundle,org.eclipse.equinox.p2.directorywatcher,1.0.203.R36x_v20101220,"org.eclipse.equinox.p2.directorywatcher",1303308201328
started,bundle,org.eclipse.equinox.p2.engine,2.0.1.R36x_v20110201,"org.eclipse.equinox.p2.engine",1303308201390
started,bundle,org.eclipse.equinox.p2.metadata,2.0.1.R36x_v20101202,"org.eclipse.equinox.p2.metadata",1303308201453
started,bundle,org.eclipse.equinox.p2.metadata.repository,1.1.0.v20100513,"org.eclipse.equinox.p2.metadata.repository",1303308201468
started,bundle,org.eclipse.equinox.p2.operations,2.0.0.v20100510,"org.eclipse.equinox.p2.operations",1303308201546
started,bundle,org.eclipse.equinox.p2.publisher,1.1.2.v20100824-2220,"org.eclipse.equinox.p2.publisher",1303308201734
started,bundle,org.eclipse.equinox.p2.reconciler.dropins,1.1.2.R36x_v20110114,"org.eclipse.equinox.p2.reconciler.dropins",1303308201796
started,bundle,org.eclipse.equinox.p2.repository,2.0.2.R36x_v20110111-1500,"org.eclipse.equinox.p2.repository",1303308201921
started,bundle,org.eclipse.equinox.p2.ui.sdk.scheduler,1.0.0.v20100507-1815,"org.eclipse.equinox.p2.ui.sdk.scheduler",1303308201937
started,bundle,org.eclipse.equinox.p2.updatechecker,1.1.101.R36x_v20100823,"org.eclipse.equinox.p2.updatechecker",1303308201984
started,bundle,org.eclipse.equinox.preferences,3.3.0.v20100503,"org.eclipse.equinox.preferences",1303308202000
started,bundle,org.eclipse.equinox.registry,3.5.0.v20100503,"org.eclipse.equinox.registry",1303308202078
started,bundle,org.eclipse.equinox.security,1.0.200.v20100503,"org.eclipse.equinox.security",1303308202093
started,bundle,org.eclipse.equinox.security.ui,1.0.200.v20100503,"org.eclipse.equinox.security.ui",1303308202109
started,bundle,org.eclipse.equinox.util,1.0.200.v20100503,"org.eclipse.equinox.util",1303308202109
started,bundle,org.eclipse.gef,3.6.2.v20110110-2020,"org.eclipse.gef",1303308202125
started,bundle,org.eclipse.help,3.5.0.v20100524,"org.eclipse.help",1303308202234
started,bundle,org.eclipse.jdt.core,3.6.2.v_A76_R36x,"org.eclipse.jdt.core",1303308202281
started,bundle,org.eclipse.jdt.core.manipulation,1.3.0.v20100520-0800,"org.eclipse.jdt.core.manipulation",1303308202296
started,bundle,org.eclipse.jdt.launching,3.5.200.v20110105_r362,"org.eclipse.jdt.launching",1303308202390
started,bundle,org.eclipse.jdt.ui,3.6.2.r362_v20110203,"org.eclipse.jdt.ui",1303308202515
started,bundle,org.eclipse.jem,2.0.400.v201005110200,"org.eclipse.jem",1303308202578
started,bundle,org.eclipse.jem.util,2.1.3.v201012070000,"org.eclipse.jem.util",1303308202578
started,bundle,org.eclipse.jem.workbench,2.0.300.v200910290230,"org.eclipse.jem.workbench",1303308202781
started,bundle,org.eclipse.jface,3.6.2.M20110210-1200,"org.eclipse.jface",1303308202812
started,bundle,org.eclipse.jst.common.frameworks,1.1.403.v201012160000,"org.eclipse.jst.common.frameworks",1303308202812
started,bundle,org.eclipse.jst.common.project.facet.core,1.4.102.v201008182136,"org.eclipse.jst.common.project.facet.core",1303308202843
started,bundle,org.eclipse.jst.j2ee,1.1.404.v201102081800,"org.eclipse.jst.j2ee",1303308202906
started,bundle,org.eclipse.jst.j2ee.core,1.2.4.v201102101900,"org.eclipse.jst.j2ee.core",1303308203015
started,bundle,org.eclipse.jst.j2ee.web,1.1.404.v201102030400,"org.eclipse.jst.j2ee.web",1303308203062
started,bundle,org.eclipse.jst.jee,1.0.302.v201101122300,"org.eclipse.jst.jee",1303308203062
started,bundle,org.eclipse.jst.jsf.common,1.2.2.v201101211220,"org.eclipse.jst.jsf.common",1303308203125
started,bundle,org.eclipse.jst.jsf.core,1.3.3.v201102021253,"org.eclipse.jst.jsf.core",1303308203156
started,bundle,org.eclipse.jst.jsf.facelet.ui,1.0.0.v20100602,"org.eclipse.jst.jsf.facelet.ui",1303308203187
started,bundle,org.eclipse.jst.jsf.ui,1.3.1.v20100906,"org.eclipse.jst.jsf.ui",1303308203218
started,bundle,org.eclipse.jst.jsp.core,1.2.304.v201102160550,"org.eclipse.jst.jsp.core",1303308203281
started,bundle,org.eclipse.jst.jsp.ui,1.1.503.v201101262228,"org.eclipse.jst.jsp.ui",1303308203328
started,bundle,org.eclipse.jst.server.core,1.2.101.v20100421,"org.eclipse.jst.server.core",1303308203343
started,bundle,org.eclipse.jst.server.tomcat.core,1.1.203.v20110201,"org.eclipse.jst.server.tomcat.core",1303308203437
started,bundle,org.eclipse.jst.ws.jaxrs.core,1.0.201.v201011231540,"org.eclipse.jst.ws.jaxrs.core",1303308203468
started,bundle,org.eclipse.jst.ws.jaxws.utils,1.0.0.v201004171919,"org.eclipse.jst.ws.jaxws.utils",1303308203515
started,bundle,org.eclipse.mylyn.commons.net,3.4.1.v20100625-2100-e3x,"org.eclipse.mylyn.commons.net",1303308203515
started,bundle,org.eclipse.mylyn.monitor.ui,3.4.1.v20110131-0100-e3x,"org.eclipse.mylyn.monitor.ui",1303308203515
started,bundle,org.eclipse.pde.launching,3.6.0.v20100601,"org.eclipse.pde.launching",1303308203515
started,bundle,org.eclipse.pde.ui,3.6.1.v20110210_r362,"org.eclipse.pde.ui",1303308203578
